{
    
    "ticket": [
        {
            "rmCode": "847899",
            "rmName": "John Cristopher Agunias",
            "actionDate": "11/14/19",
            "role": "Relationship Manager",
            "labelbgType": "warning",
            "type": "Request ",
            "customerId": "6477837",
            "customerName": "Andrew  Chua",
            "area": "Account Service",
            "subject": "Update Mobile",
            "additionalInformation": "Change in the Mobile Number",
            "assignedTo": "Operations",
            "priority": "High",
            "status": "In Progress",
            "labelbgStatus": "primary"
        },
        {
            "rmCode": "847899",
            "rmName": "John Cristopher Agunias",
            "actionDate": "11/14/19",
            "role": "Relationship Manager",
            "labelbgType": "warning",
            "type": "Request ",
            "customerId": "6477837",
            "customerName": "Andrew  Chua",
            "area": "Account Service",
            "subject": "Update Email",
            "additionalInformation": "Change in the primary Email Address",
            "assignedTo": "Operations",
            "priority": "High",
            "status": "In Progress",
            "labelbgStatus": "primary"
        },
        {
            "rmCode": "847899",
            "rmName": "John Cristopher Agunias",
            "actionDate": "11/14/19",
            "role": "Relationship Manager",
            "labelbgType": "warning",
            "type": "Request ",
            "customerId": "6477837",
            "customerName": "Andrew  Chua",
            "area": "Account Service",
            "subject": "Update Document",
            "additionalInformation": "Uploaded passport copy and the same is verified ",
            "assignedTo": "Operations",
            "priority": "High",
            "status": "In Progress",
            "labelbgStatus": "primary"
        },
        {
            "rmCode": "847899",
            "rmName": "John Cristopher Agunias",
            "actionDate": "11/14/19",
            "role": "Relationship Manager",
            "labelbgType": "warning",
            "type": "Request ",
            "customerId": "6477836",
            "customerName": "Prince Anthony  Yeung",
            "area": "Account Service",
            "subject": "Add or Change Nominee",
            "additionalInformation": "Add a new nominee, form shall be submitted at Branch",
            "assignedTo": "Branch",
            "priority": "High",
            "status": "In Progress",
            "labelbgStatus": "primary"
        },
        {
            "rmCode": "847899",
            "rmName": "John Cristopher Agunias",
            "actionDate": "11/1/19",
            "role": "Relationship Manager",
            "labelbgType": "primary",
            "type": "Complaint",
            "customerId": "6477847",
            "customerName": "Lea Angeline",
            "area": "Report & Statement",
            "subject": "Statement Not Received",
            "additionalInformation": "Monthly statement for October 2019 is not received yet",
            "assignedTo": "Operations",
            "priority": "High",
            "status": "In Progress",
            "labelbgStatus": "primary"
        },
        {
            "rmCode": "847899",
            "rmName": "John Cristopher Agunias",
            "actionDate": "11/1/19",
            "role": "Relationship Manager",
            "labelbgType": "primary",
            "type": "Complaint",
            "customerId": "6477848",
            "customerName": "Ana  Ordonez",
            "area": "Report & Statement",
            "subject": "Statement Not Received",
            "additionalInformation": "Monthly statement for October 2019 is not received yet",
            "assignedTo": "Operations",
            "priority": "High",
            "status": "In Progress",
            "labelbgStatus": "primary"
        },
        {
            "rmCode": "847899",
            "rmName": "John Cristopher Agunias",
            "actionDate": "11/1/19",
            "role": "Relationship Manager",
            "labelbgType": "primary",
            "type": "Complaint",
            "customerId": "6477849",
            "customerName": "Christmas  Sevilla",
            "area": "Report & Statement",
            "subject": "Statement Not Received",
            "additionalInformation": "Monthly statement for October 2019 is not received yet",
            "assignedTo": "Operations",
            "priority": "High",
            "status": "In Progress",
            "labelbgStatus": "primary"
        },
        {
            "rmCode": "847899",
            "rmName": "John Cristopher Agunias",
            "actionDate": "11/1/19",
            "role": "Relationship Manager",
            "labelbgType": "primary",
            "type": "Complaint",
            "customerId": "6477850",
            "customerName": "Patrick Cheng",
            "area": "Report & Statement",
            "subject": "Statement Not Received",
            "additionalInformation": "Monthly statement for October 2019 is not received yet",
            "assignedTo": "Operations",
            "priority": "High",
            "status": "In Progress",
            "labelbgStatus": "primary"
        },
        {
            "rmCode": "847899",
            "rmName": "John Cristopher Agunias",
            "actionDate": "10/30/19",
            "role": "Relationship Manager",
            "labelbgType": "warning",
            "type": "Request ",
            "customerId": "6477851",
            "customerName": "Carina Yandoc",
            "area": "Report & Statement",
            "subject": "Statement Request",
            "additionalInformation": "Request for consolidated statement from January 2019",
            "assignedTo": "Operations",
            "priority": "High",
            "status": "In Progress",
            "labelbgStatus": "primary"
        },
        {
            "rmCode": "847899",
            "rmName": "John Cristopher Agunias",
            "actionDate": "10/28/19",
            "role": "Relationship Manager",
            "labelbgType": "warning",
            "type": "Request ",
            "customerId": "6477852",
            "customerName": "Norman Carmen",
            "area": "Report & Statement",
            "subject": "Statement Request",
            "additionalInformation": "Request for consolidated statement from January 2019",
            "assignedTo": "Operations",
            "priority": "High",
            "status": "In Progress",
            "labelbgStatus": "primary"
        },
        {
            "rmCode": "847899",
            "rmName": "John Cristopher Agunias",
            "actionDate": "10/27/19",
            "role": "Relationship Manager",
            "labelbgType": "primary",
            "type": "Complaint",
            "customerId": "6477853",
            "customerName": "Gemma Deladia",
            "area": "Investment",
            "subject": "Portfolio Performance",
            "additionalInformation": "Portfolio underperformed and below expectation",
            "assignedTo": "Operations",
            "priority": "High",
            "status": "In Progress",
            "labelbgStatus": "primary"
        },
        {
            "rmCode": "847899",
            "rmName": "John Cristopher Agunias",
            "actionDate": "10/26/19",
            "role": "Relationship Manager",
            "labelbgType": "primary",
            "type": "Complaint",
            "customerId": "6477854",
            "customerName": "Susan  Ferrer",
            "area": "Investment",
            "subject": "Portfolio Performance",
            "additionalInformation": "Portfolio underperformed and below expectation",
            "assignedTo": "Operations",
            "priority": "High",
            "status": "In Progress",
            "labelbgStatus": "primary"
        },
        {
            "rmCode": "847899",
            "rmName": "John Cristopher Agunias",
            "actionDate": "10/25/19",
            "role": "Relationship Manager",
            "labelbgType": "primary",
            "type": "Complaint",
            "customerId": "6477855",
            "customerName": "Faye Theresa Escalla",
            "area": "Investment",
            "subject": "Portfolio Performance",
            "additionalInformation": "Portfolio underperformed and below expectation",
            "assignedTo": "Operations",
            "priority": "High",
            "status": "In Progress",
            "labelbgStatus": "primary"
        },
        {
            "rmCode": "847899",
            "rmName": "John Cristopher Agunias",
            "actionDate": "10/24/19",
            "role": "Relationship Manager",
            "labelbgType": "success",
            "type": "Query",
            "customerId": "6477856",
            "customerName": "Vivian Yong",
            "area": "Investment",
            "subject": "Portfolio Performance",
            "additionalInformation": "Need explanation on portfolio return calculation",
            "assignedTo": "Operations",
            "priority": "High",
            "status": "In Progress",
            "labelbgStatus": "primary"
        },
        {
            "rmCode": "847899",
            "rmName": "John Cristopher Agunias",
            "actionDate": "10/23/19",
            "role": "Relationship Manager",
            "labelbgType": "success",
            "type": "Query",
            "customerId": "6477857",
            "customerName": "Eleanor Faigao",
            "area": "Investment",
            "subject": "Portfolio Performance",
            "additionalInformation": "Need to know portfolio return since inception of the account",
            "assignedTo": "Operations",
            "priority": "Medium",
            "status": "In Progress",
            "labelbgStatus": "primary"
        },
        {
            "rmCode": "847899",
            "rmName": "John Cristopher Agunias",
            "actionDate": "10/22/19",
            "role": "Relationship Manager",
            "labelbgType": "warning",
            "type": "Request ",
            "customerId": "6477858",
            "customerName": "Cristina Antonio",
            "area": "Investment",
            "subject": "Portfolio Rebalancing",
            "additionalInformation": "Request for realigning the portfolio with the IPS / Model",
            "assignedTo": "Operations",
            "priority": "Medium",
            "status": "In Progress",
            "labelbgStatus": "primary"
        },
        {
            "rmCode": "847899",
            "rmName": "John Cristopher Agunias",
            "actionDate": "10/21/19",
            "role": "Relationship Manager",
            "labelbgType": "warning",
            "type": "Request ",
            "customerId": "6477835",
            "customerName": "Reynaldo Goco",
            "area": "Investment",
            "subject": "Risk Profiling",
            "additionalInformation": "Requested a profiling before due date",
            "assignedTo": "Operations",
            "priority": "Medium",
            "status": "In Progress",
            "labelbgStatus": "primary"
        },
        {
            "rmCode": "847899",
            "rmName": "John Cristopher Agunias",
            "actionDate": "10/20/19",
            "role": "Relationship Manager",
            "labelbgType": "warning",
            "type": "Request ",
            "customerId": "6477836",
            "customerName": "Prince Anthony  Yeung",
            "area": "Investment",
            "subject": "Risk Profiling",
            "additionalInformation": "Requested a profiling before due date",
            "assignedTo": "Operations",
            "priority": "High",
            "status": "In Progress",
            "labelbgStatus": "primary"
        },
        {
            "rmCode": "847899",
            "rmName": "John Cristopher Agunias",
            "actionDate": "10/19/19",
            "role": "Relationship Manager",
            "labelbgType": "warning",
            "type": "Request ",
            "customerId": "6477837",
            "customerName": "Andrew  Chua",
            "area": "Investment",
            "subject": "Transaction",
            "additionalInformation": "assistance needed for Order Entry",
            "assignedTo": "Operations",
            "priority": "High",
            "status": "In Progress",
            "labelbgStatus": "primary"
        },
        {
            "rmCode": "847899",
            "rmName": "John Cristopher Agunias",
            "actionDate": "10/18/19",
            "role": "Relationship Manager",
            "labelbgType": "primary",
            "type": "Complaint",
            "customerId": "6477838",
            "customerName": "Rachel Arnaez",
            "area": "Account Closure",
            "subject": "Portfolio Liquidation",
            "additionalInformation": "Would like to sell the entire investment portfolio ",
            "assignedTo": "Retention",
            "priority": "High",
            "status": "In Progress",
            "labelbgStatus": "primary"
        },
        {
            "rmCode": "847899",
            "rmName": "John Cristopher Agunias",
            "actionDate": "10/17/19",
            "role": "Relationship Manager",
            "labelbgType": "primary",
            "type": "Complaint",
            "customerId": "6477839",
            "customerName": "Donna Lim",
            "area": "Account Closure",
            "subject": "Portfolio Migration",
            "additionalInformation": "Not satisfied with the service, would like to migrate to BDO",
            "assignedTo": "Retention",
            "priority": "High",
            "status": "In Progress",
            "labelbgStatus": "primary"
        },
        {
            "rmCode": "847899",
            "rmName": "John Cristopher Agunias",
            "actionDate": "10/16/19",
            "role": "Relationship Manager",
            "labelbgType": "primary",
            "type": "Complaint",
            "customerId": "6477840",
            "customerName": "Shella Lipio",
            "area": "Financial Planning",
            "subject": "Goal at Risk",
            "additionalInformation": "The goal is lagging behind the target",
            "assignedTo": "Financial Advisor",
            "priority": "High",
            "status": "In Progress",
            "labelbgStatus": "primary"
        },
        {
            "rmCode": "847899",
            "rmName": "John Cristopher Agunias",
            "actionDate": "10/15/19",
            "role": "Relationship Manager",
            "labelbgType": "warning",
            "type": "Request ",
            "customerId": "6477841",
            "customerName": "Carmela Diaz",
            "area": "Account Service",
            "subject": "Update Document",
            "additionalInformation": "Uploaded passport copy and the same is verified ",
            "assignedTo": "Operations",
            "priority": "High",
            "status": "In Progress",
            "labelbgStatus": "primary"
        },
        {
            "rmCode": "847899",
            "rmName": "John Cristopher Agunias",
            "actionDate": "10/14/19",
            "role": "Relationship Manager",
            "labelbgType": "warning",
            "type": "Request ",
            "customerId": "6477842",
            "customerName": "Joel Escalla",
            "area": "Account Service",
            "subject": "Add or Change Nominee",
            "additionalInformation": "Add a new nominee, form shall be submitted at Branch",
            "assignedTo": "Branch",
            "priority": "High",
            "status": "In Progress",
            "labelbgStatus": "primary"
        },
        {
            "rmCode": "847899",
            "rmName": "John Cristopher Agunias",
            "actionDate": "10/13/19",
            "role": "Relationship Manager",
            "labelbgType": "primary",
            "type": "Complaint",
            "customerId": "6477835",
            "customerName": "Reynaldo Goco",
            "area": "Report & Statement",
            "subject": "Statement Not Received",
            "additionalInformation": "Monthly statement for September 2019 is not received yet",
            "assignedTo": "Operations",
            "priority": "High",
            "status": "In Progress",
            "labelbgStatus": "primary"
        },
        {
            "rmCode": "847899",
            "rmName": "John Cristopher Agunias",
            "actionDate": "10/12/19",
            "role": "Relationship Manager",
            "labelbgType": "primary",
            "type": "Complaint",
            "customerId": "6477836",
            "customerName": "Prince Anthony  Yeung",
            "area": "Report & Statement",
            "subject": "Statement Not Received",
            "additionalInformation": "Monthly statement for September 2019 is not received yet",
            "assignedTo": "Operations",
            "priority": "High",
            "status": "In Progress",
            "labelbgStatus": "primary"
        },
        {
            "rmCode": "847899",
            "rmName": "John Cristopher Agunias",
            "actionDate": "10/11/19",
            "role": "Relationship Manager",
            "labelbgType": "primary",
            "type": "Complaint",
            "customerId": "6477837",
            "customerName": "Andrew  Chua",
            "area": "Report & Statement",
            "subject": "Statement Not Received",
            "additionalInformation": "Monthly statement for September 2019 is not received yet",
            "assignedTo": "Operations",
            "priority": "High",
            "status": "In Progress",
            "labelbgStatus": "primary"
        },
        {
            "rmCode": "847899",
            "rmName": "John Cristopher Agunias",
            "actionDate": "10/10/19",
            "role": "Relationship Manager",
            "labelbgType": "primary",
            "type": "Complaint",
            "customerId": "6477838",
            "customerName": "Rachel Arnaez",
            "area": "Report & Statement",
            "subject": "Statement Not Received",
            "additionalInformation": "Monthly statement for September 2019 is not received yet",
            "assignedTo": "Operations",
            "priority": "High",
            "status": "In Progress",
            "labelbgStatus": "primary"
        },
        {
            "rmCode": "847899",
            "rmName": "John Cristopher Agunias",
            "actionDate": "10/9/19",
            "role": "Relationship Manager",
            "labelbgType": "success",
            "type": "Query",
            "customerId": "6477839",
            "customerName": "Donna Lim",
            "area": "General Query",
            "subject": "Fee & Charges",
            "additionalInformation": "Fee Calculation to be explained",
            "assignedTo": "Operations",
            "priority": "High",
            "status": "In Progress",
            "labelbgStatus": "primary"
        },
        {
            "rmCode": "847899",
            "rmName": "John Cristopher Agunias",
            "actionDate": "10/8/19",
            "role": "Relationship Manager",
            "labelbgType": "success",
            "type": "Query",
            "customerId": "6477840",
            "customerName": "Shella Lipio",
            "area": "General Query",
            "subject": "Fee & Charges",
            "additionalInformation": "Fee Calculation to be explained",
            "assignedTo": "Operations",
            "priority": "High",
            "status": "In Progress",
            "labelbgStatus": "primary"
        },
        {
            "rmCode": "847899",
            "rmName": "John Cristopher Agunias",
            "actionDate": "10/7/19",
            "role": "Relationship Manager",
            "labelbgType": "success",
            "type": "Query",
            "customerId": "6477841",
            "customerName": "Carmela Diaz",
            "area": "Investment",
            "subject": "Product Information",
            "additionalInformation": "Need more information on Liquid UITFS",
            "assignedTo": "Relationship Manager",
            "priority": "High",
            "status": "Closed",
            "labelbgStatus": "success"
        },
        {
            "rmCode": "847899",
            "rmName": "John Cristopher Agunias",
            "actionDate": "10/6/19",
            "role": "Relationship Manager",
            "labelbgType": "success",
            "type": "Query",
            "customerId": "6477842",
            "customerName": "Joel Escalla",
            "area": "Investment",
            "subject": "Product Information",
            "additionalInformation": "Need more information on Liquid UITFS",
            "assignedTo": "Relationship Manager",
            "priority": "High",
            "status": "Closed",
            "labelbgStatus": "success"
        },
        {
            "rmCode": "847899",
            "rmName": "John Cristopher Agunias",
            "actionDate": "10/5/19",
            "role": "Relationship Manager",
            "labelbgType": "success",
            "type": "Query",
            "customerId": "6477843",
            "customerName": "Mario Miranda",
            "area": "Investment",
            "subject": "Product Information",
            "additionalInformation": "Need information on PERA",
            "assignedTo": "Relationship Manager",
            "priority": "High",
            "status": "Closed",
            "labelbgStatus": "success"
        },
        {
            "rmCode": "847899",
            "rmName": "John Cristopher Agunias",
            "actionDate": "10/4/19",
            "role": "Relationship Manager",
            "labelbgType": "success",
            "type": "Query",
            "customerId": "6477844",
            "customerName": "Miguel Cervantes",
            "area": "General Query",
            "subject": "Other Services",
            "additionalInformation": "Information needed on Trust Account",
            "assignedTo": "Relationship Manager",
            "priority": "High",
            "status": "Closed",
            "labelbgStatus": "success"
        },
        {
            "rmCode": "847899",
            "rmName": "John Cristopher Agunias",
            "actionDate": "10/7/19",
            "role": "Relationship Manager",
            "labelbgType": "warning",
            "type": "Request ",
            "customerId": "6477837",
            "customerName": "Andrew  Chua",
            "area": "Account Service",
            "subject": "Update Mobile",
            "additionalInformation": "Change in the Mobile Number",
            "assignedTo": "Operations",
            "priority": "High",
            "status": "Closed",
            "labelbgStatus": "success"
        },
        {
            "rmCode": "847899",
            "rmName": "John Cristopher Agunias",
            "actionDate": "10/10/19",
            "role": "Relationship Manager",
            "labelbgType": "warning",
            "type": "Request ",
            "customerId": "6477837",
            "customerName": "Andrew  Chua",
            "area": "Account Service",
            "subject": "Update Email",
            "additionalInformation": "Change in the primary Email Address",
            "assignedTo": "Operations",
            "priority": "High",
            "status": "Closed",
            "labelbgStatus": "success"
        },
        {
            "rmCode": "847899",
            "rmName": "John Cristopher Agunias",
            "actionDate": "10/13/19",
            "role": "Relationship Manager",
            "labelbgType": "warning",
            "type": "Request ",
            "customerId": "6477837",
            "customerName": "Andrew  Chua",
            "area": "Account Service",
            "subject": "Update Document",
            "additionalInformation": "Uploaded passport copy and the same is verified ",
            "assignedTo": "Operations",
            "priority": "High",
            "status": "Closed",
            "labelbgStatus": "success"
        },
        {
            "rmCode": "847899",
            "rmName": "John Cristopher Agunias",
            "actionDate": "10/16/19",
            "role": "Relationship Manager",
            "labelbgType": "warning",
            "type": "Request ",
            "customerId": "6477836",
            "customerName": "Prince Anthony  Yeung",
            "area": "Account Service",
            "subject": "Add or Change Nominee",
            "additionalInformation": "Add a new nominee, form shall be submitted at Branch",
            "assignedTo": "Branch",
            "priority": "High",
            "status": "Closed",
            "labelbgStatus": "success"
        },
        {
            "rmCode": "847899",
            "rmName": "John Cristopher Agunias",
            "actionDate": "10/19/19",
            "role": "Relationship Manager",
            "labelbgType": "primary",
            "type": "Complaint",
            "customerId": "6477847",
            "customerName": "Lea Angeline",
            "area": "Report & Statement",
            "subject": "Statement Not Received",
            "additionalInformation": "Monthly statement for October 2019 is not received yet",
            "assignedTo": "Operations",
            "priority": "High",
            "status": "Closed",
            "labelbgStatus": "success"
        },
        {
            "rmCode": "847899",
            "rmName": "John Cristopher Agunias",
            "actionDate": "10/22/19",
            "role": "Relationship Manager",
            "labelbgType": "primary",
            "type": "Complaint",
            "customerId": "6477848",
            "customerName": "Ana  Ordonez",
            "area": "Report & Statement",
            "subject": "Statement Not Received",
            "additionalInformation": "Monthly statement for October 2019 is not received yet",
            "assignedTo": "Operations",
            "priority": "High",
            "status": "Closed",
            "labelbgStatus": "success"
        },
        {
            "rmCode": "847899",
            "rmName": "John Cristopher Agunias",
            "actionDate": "10/25/19",
            "role": "Relationship Manager",
            "labelbgType": "primary",
            "type": "Complaint",
            "customerId": "6477849",
            "customerName": "Christmas  Sevilla",
            "area": "Report & Statement",
            "subject": "Statement Not Received",
            "additionalInformation": "Monthly statement for October 2019 is not received yet",
            "assignedTo": "Operations",
            "priority": "High",
            "status": "Closed",
            "labelbgStatus": "success"
        },
        {
            "rmCode": "847899",
            "rmName": "John Cristopher Agunias",
            "actionDate": "10/28/19",
            "role": "Relationship Manager",
            "labelbgType": "primary",
            "type": "Complaint",
            "customerId": "6477850",
            "customerName": "Patrick Cheng",
            "area": "Report & Statement",
            "subject": "Statement Not Received",
            "additionalInformation": "Monthly statement for October 2019 is not received yet",
            "assignedTo": "Operations",
            "priority": "High",
            "status": "Closed",
            "labelbgStatus": "success"
        },
        {
            "rmCode": "847899",
            "rmName": "John Cristopher Agunias",
            "actionDate": "10/31/19",
            "role": "Relationship Manager",
            "labelbgType": "warning",
            "type": "Request ",
            "customerId": "6477851",
            "customerName": "Carina Yandoc",
            "area": "Report & Statement",
            "subject": "Statement Request",
            "additionalInformation": "Request for consolidated statement from January 2019",
            "assignedTo": "Operations",
            "priority": "High",
            "status": "Closed",
            "labelbgStatus": "success"
        },
        {
            "rmCode": "847899",
            "rmName": "John Cristopher Agunias",
            "actionDate": "11/3/19",
            "role": "Relationship Manager",
            "labelbgType": "warning",
            "type": "Request ",
            "customerId": "6477852",
            "customerName": "Norman Carmen",
            "area": "Report & Statement",
            "subject": "Statement Request",
            "additionalInformation": "Request for consolidated statement from January 2019",
            "assignedTo": "Operations",
            "priority": "High",
            "status": "Closed",
            "labelbgStatus": "success"
        },
        {
            "rmCode": "847899",
            "rmName": "John Cristopher Agunias",
            "actionDate": "11/6/19",
            "role": "Relationship Manager",
            "labelbgType": "primary",
            "type": "Complaint",
            "customerId": "6477853",
            "customerName": "Gemma Deladia",
            "area": "Investment",
            "subject": "Portfolio Performance",
            "additionalInformation": "Portfolio underperformed and below expectation",
            "assignedTo": "Operations",
            "priority": "High",
            "status": "Closed",
            "labelbgStatus": "success"
        },
        {
            "rmCode": "847899",
            "rmName": "John Cristopher Agunias",
            "actionDate": "11/9/19",
            "role": "Relationship Manager",
            "labelbgType": "primary",
            "type": "Complaint",
            "customerId": "6477854",
            "customerName": "Susan  Ferrer",
            "area": "Investment",
            "subject": "Portfolio Performance",
            "additionalInformation": "Portfolio underperformed and below expectation",
            "assignedTo": "Operations",
            "priority": "High",
            "status": "Closed",
            "labelbgStatus": "success"
        },
        {
            "rmCode": "847899",
            "rmName": "John Cristopher Agunias",
            "actionDate": "11/8/19",
            "role": "Relationship Manager",
            "labelbgType": "primary",
            "type": "Complaint",
            "customerId": "6477855",
            "customerName": "Faye Theresa Escalla",
            "area": "Investment",
            "subject": "Portfolio Performance",
            "additionalInformation": "Portfolio underperformed and below expectation",
            "assignedTo": "Operations",
            "priority": "High",
            "status": "Closed",
            "labelbgStatus": "success"
        },
        {
            "rmCode": "847899",
            "rmName": "John Cristopher Agunias",
            "actionDate": "11/7/19",
            "role": "Relationship Manager",
            "labelbgType": "success",
            "type": "Query",
            "customerId": "6477878",
            "customerName": "Madeleine Casas",
            "area": "Investment",
            "subject": "Portfolio Performance",
            "additionalInformation": "Need explanation on portfolio return calculation",
            "assignedTo": "Operations",
            "priority": "High",
            "status": "Closed",
            "labelbgStatus": "success"
        },
        {
            "rmCode": "847899",
            "rmName": "John Cristopher Agunias",
            "actionDate": "11/6/19",
            "role": "Relationship Manager",
            "labelbgType": "success",
            "type": "Query",
            "customerId": "6477879",
            "customerName": "Melanie Cahanding ",
            "area": "Investment",
            "subject": "Portfolio Performance",
            "additionalInformation": "Need to know portfolio return since inception of the account",
            "assignedTo": "Operations",
            "priority": "Medium",
            "status": "Closed",
            "labelbgStatus": "success"
        },
        {
            "rmCode": "847899",
            "rmName": "John Cristopher Agunias",
            "actionDate": "11/5/19",
            "role": "Relationship Manager",
            "labelbgType": "warning",
            "type": "Request ",
            "customerId": "6477880",
            "customerName": "Jeffrey Ligsay ",
            "area": "Investment",
            "subject": "Portfolio Rebalancing",
            "additionalInformation": "Request for realigning the portfolio with the IPS / Model",
            "assignedTo": "Operations",
            "priority": "Medium",
            "status": "Closed",
            "labelbgStatus": "success"
        },
        {
            "rmCode": "847899",
            "rmName": "John Cristopher Agunias",
            "actionDate": "11/4/19",
            "role": "Relationship Manager",
            "labelbgType": "warning",
            "type": "Request ",
            "customerId": "6477881",
            "customerName": "Ma. Felicia Magtibay",
            "area": "Investment",
            "subject": "Risk Profiling",
            "additionalInformation": "Requested a profiling before due date",
            "assignedTo": "Operations",
            "priority": "Medium",
            "status": "Closed",
            "labelbgStatus": "success"
        },
        {
            "rmCode": "847899",
            "rmName": "John Cristopher Agunias",
            "actionDate": "11/2/19",
            "role": "Relationship Manager",
            "labelbgType": "warning",
            "type": "Request ",
            "customerId": "6477882",
            "customerName": "Ma. Gladys Perez ",
            "area": "Investment",
            "subject": "Risk Profiling",
            "additionalInformation": "Requested a profiling before due date",
            "assignedTo": "Operations",
            "priority": "High",
            "status": "Closed",
            "labelbgStatus": "success"
        },
        {
            "rmCode": "847899",
            "rmName": "John Cristopher Agunias",
            "actionDate": "10/31/19",
            "role": "Relationship Manager",
            "labelbgType": "warning",
            "type": "Request ",
            "customerId": "6477883",
            "customerName": "Leonor Cahulogan ",
            "area": "Investment",
            "subject": "Transaction",
            "additionalInformation": "assistance needed for Order Entry",
            "assignedTo": "Operations",
            "priority": "High",
            "status": "Closed",
            "labelbgStatus": "success"
        },
        {
            "rmCode": "847899",
            "rmName": "John Cristopher Agunias",
            "actionDate": "10/29/19",
            "role": "Relationship Manager",
            "labelbgType": "primary",
            "type": "Complaint",
            "customerId": "6477884",
            "customerName": "Paul Azura ",
            "area": "Account Closure",
            "subject": "Portfolio Liquidation",
            "additionalInformation": "Would like to sell the entire investment portfolio ",
            "assignedTo": "Retention",
            "priority": "High",
            "status": "Closed",
            "labelbgStatus": "success"
        },
        {
            "rmCode": "847899",
            "rmName": "John Cristopher Agunias",
            "actionDate": "10/27/19",
            "role": "Relationship Manager",
            "labelbgType": "primary",
            "type": "Complaint",
            "customerId": "6477885",
            "customerName": "Maribeth Ortuoste ",
            "area": "Account Closure",
            "subject": "Portfolio Migration",
            "additionalInformation": "Not satisfied with the service, would like to migrate to BDO",
            "assignedTo": "Retention",
            "priority": "High",
            "status": "Closed",
            "labelbgStatus": "success"
        },
        {
            "rmCode": "847899",
            "rmName": "John Cristopher Agunias",
            "actionDate": "10/25/19",
            "role": "Relationship Manager",
            "labelbgType": "primary",
            "type": "Complaint",
            "customerId": "6477886",
            "customerName": "June Aubrey  De La Pena ",
            "area": "Financial Planning",
            "subject": "Goal at Risk",
            "additionalInformation": "The goal is lagging behind the target",
            "assignedTo": "Financial Advisor",
            "priority": "High",
            "status": "Closed",
            "labelbgStatus": "success"
        },
        {
            "rmCode": "847899",
            "rmName": "John Cristopher Agunias",
            "actionDate": "10/23/19",
            "role": "Relationship Manager",
            "labelbgType": "warning",
            "type": "Request ",
            "customerId": "6477887",
            "customerName": "Catherine Reyes ",
            "area": "Account Service",
            "subject": "Update Document",
            "additionalInformation": "Uploaded passport copy and the same is verified ",
            "assignedTo": "Operations",
            "priority": "High",
            "status": "Closed",
            "labelbgStatus": "success"
        },
        {
            "rmCode": "847899",
            "rmName": "John Cristopher Agunias",
            "actionDate": "10/22/19",
            "role": "Relationship Manager",
            "labelbgType": "warning",
            "type": "Request ",
            "customerId": "6477888",
            "customerName": "Angel Marie Pacis",
            "area": "Account Service",
            "subject": "Add or Change Nominee",
            "additionalInformation": "Add a new nominee, form shall be submitted at Branch",
            "assignedTo": "Branch",
            "priority": "High",
            "status": "Closed",
            "labelbgStatus": "success"
        },
        {
            "rmCode": "847899",
            "rmName": "John Cristopher Agunias",
            "actionDate": "10/21/19",
            "role": "Relationship Manager",
            "labelbgType": "primary",
            "type": "Complaint",
            "customerId": "6477889",
            "customerName": "Rowena Caro",
            "area": "Report & Statement",
            "subject": "Statement Not Received",
            "additionalInformation": "Monthly statement for September 2019 is not received yet",
            "assignedTo": "Operations",
            "priority": "High",
            "status": "Closed",
            "labelbgStatus": "success"
        },
        {
            "rmCode": "847899",
            "rmName": "John Cristopher Agunias",
            "actionDate": "10/20/19",
            "role": "Relationship Manager",
            "labelbgType": "primary",
            "type": "Complaint",
            "customerId": "6477890",
            "customerName": "Jaclyn Faith Chua",
            "area": "Report & Statement",
            "subject": "Statement Not Received",
            "additionalInformation": "Monthly statement for September 2019 is not received yet",
            "assignedTo": "Operations",
            "priority": "High",
            "status": "Closed",
            "labelbgStatus": "success"
        },
        {
            "rmCode": "847899",
            "rmName": "John Cristopher Agunias",
            "actionDate": "10/19/19",
            "role": "Relationship Manager",
            "labelbgType": "primary",
            "type": "Complaint",
            "customerId": "6477870",
            "customerName": "James Matthew Tan",
            "area": "Report & Statement",
            "subject": "Statement Not Received",
            "additionalInformation": "Monthly statement for September 2019 is not received yet",
            "assignedTo": "Operations",
            "priority": "High",
            "status": "Closed",
            "labelbgStatus": "success"
        },
        {
            "rmCode": "847899",
            "rmName": "John Cristopher Agunias",
            "actionDate": "10/18/19",
            "role": "Relationship Manager",
            "labelbgType": "primary",
            "type": "Complaint",
            "customerId": "6477871",
            "customerName": "Edward Michael  Fernandez",
            "area": "Report & Statement",
            "subject": "Statement Not Received",
            "additionalInformation": "Monthly statement for September 2019 is not received yet",
            "assignedTo": "Operations",
            "priority": "High",
            "status": "Closed",
            "labelbgStatus": "success"
        },
        {
            "rmCode": "847899",
            "rmName": "John Cristopher Agunias",
            "actionDate": "10/17/19",
            "role": "Relationship Manager",
            "labelbgType": "success",
            "type": "Query",
            "customerId": "6477872",
            "customerName": "Maria Gene Erika Reyes",
            "area": "General Query",
            "subject": "Fee & Charges",
            "additionalInformation": "Fee Calculation to be explained",
            "assignedTo": "Operations",
            "priority": "High",
            "status": "Closed",
            "labelbgStatus": "success"
        },
        {
            "rmCode": "847899",
            "rmName": "John Cristopher Agunias",
            "actionDate": "10/16/19",
            "role": "Relationship Manager",
            "labelbgType": "success",
            "type": "Query",
            "customerId": "6477873",
            "customerName": "Mary Ellen Legaspi",
            "area": "General Query",
            "subject": "Fee & Charges",
            "additionalInformation": "Fee Calculation to be explained",
            "assignedTo": "Operations",
            "priority": "High",
            "status": "Closed",
            "labelbgStatus": "success"
        },
        {
            "rmCode": "847899",
            "rmName": "John Cristopher Agunias",
            "actionDate": "10/15/19",
            "role": "Relationship Manager",
            "labelbgType": "success",
            "type": "Query",
            "customerId": "6477874",
            "customerName": "Dennis Follo",
            "area": "Investment",
            "subject": "Product Information",
            "additionalInformation": "Need more information on Liquid UITFS",
            "assignedTo": "Relationship Manager",
            "priority": "High",
            "status": "Closed",
            "labelbgStatus": "success"
        },
        {
            "rmCode": "847899",
            "rmName": "John Cristopher Agunias",
            "actionDate": "10/14/19",
            "role": "Relationship Manager",
            "labelbgType": "success",
            "type": "Query",
            "customerId": "6477875",
            "customerName": "Felipe Velasco",
            "area": "Investment",
            "subject": "Product Information",
            "additionalInformation": "Need more information on Liquid UITFS",
            "assignedTo": "Relationship Manager",
            "priority": "High",
            "status": "Closed",
            "labelbgStatus": "success"
        },
        {
            "rmCode": "847899",
            "rmName": "John Cristopher Agunias",
            "actionDate": "10/13/19",
            "role": "Relationship Manager",
            "labelbgType": "success",
            "type": "Query",
            "customerId": "6477876",
            "customerName": "Stella Sampayan ",
            "area": "Investment",
            "subject": "Product Information",
            "additionalInformation": "Need information on PERA",
            "assignedTo": "Relationship Manager",
            "priority": "High",
            "status": "Closed",
            "labelbgStatus": "success"
        },
        {
            "rmCode": "847899",
            "rmName": "John Cristopher Agunias",
            "actionDate": "10/12/19",
            "role": "Relationship Manager",
            "labelbgType": "success",
            "type": "Query",
            "customerId": "6477877",
            "customerName": "Ma. Teresa Atienza ",
            "area": "General Query",
            "subject": "Other Services",
            "additionalInformation": "Information needed on Trust Account",
            "assignedTo": "Relationship Manager",
            "priority": "High",
            "status": "Closed",
            "labelbgStatus": "success"
        },
        {
            "rmCode": "847899",
            "rmName": "John Cristopher Agunias",
            "actionDate": "10/11/19",
            "role": "Relationship Manager",
            "labelbgType": "primary",
            "type": "Complaint",
            "customerId": "6477853",
            "customerName": "Gemma Deladia",
            "area": "Investment",
            "subject": "Portfolio Performance",
            "additionalInformation": "Portfolio underperformed and below expectation",
            "assignedTo": "Operations",
            "priority": "High",
            "status": "In Progress",
            "labelbgStatus": "primary"
        },
        {
            "rmCode": "847899",
            "rmName": "John Cristopher Agunias",
            "actionDate": "10/10/19",
            "role": "Relationship Manager",
            "labelbgType": "primary",
            "type": "Complaint",
            "customerId": "6477854",
            "customerName": "Susan  Ferrer",
            "area": "Investment",
            "subject": "Portfolio Performance",
            "additionalInformation": "Portfolio underperformed and below expectation",
            "assignedTo": "Operations",
            "priority": "High",
            "status": "In Progress",
            "labelbgStatus": "primary"
        },
        {
            "rmCode": "847899",
            "rmName": "John Cristopher Agunias",
            "actionDate": "10/9/19",
            "role": "Relationship Manager",
            "labelbgType": "primary",
            "type": "Complaint",
            "customerId": "6477855",
            "customerName": "Faye Theresa Escalla",
            "area": "Investment",
            "subject": "Portfolio Performance",
            "additionalInformation": "Portfolio underperformed and below expectation",
            "assignedTo": "Operations",
            "priority": "High",
            "status": "In Progress",
            "labelbgStatus": "primary"
        },
        {
            "rmCode": "847899",
            "rmName": "John Cristopher Agunias",
            "actionDate": "10/8/19",
            "role": "Relationship Manager",
            "labelbgType": "success",
            "type": "Query",
            "customerId": "6477856",
            "customerName": "Vivian Yong",
            "area": "Investment",
            "subject": "Portfolio Performance",
            "additionalInformation": "Need explanation on portfolio return calculation",
            "assignedTo": "Operations",
            "priority": "High",
            "status": "In Progress",
            "labelbgStatus": "primary"
        },
        {
            "rmCode": "847899",
            "rmName": "John Cristopher Agunias",
            "actionDate": "10/7/19",
            "role": "Relationship Manager",
            "labelbgType": "success",
            "type": "Query",
            "customerId": "6477857",
            "customerName": "Eleanor Faigao",
            "area": "Investment",
            "subject": "Portfolio Performance",
            "additionalInformation": "Need to know portfolio return since inception of the account",
            "assignedTo": "Operations",
            "priority": "Medium",
            "status": "In Progress",
            "labelbgStatus": "primary"
        },
        {
            "rmCode": "847899",
            "rmName": "John Cristopher Agunias",
            "actionDate": "10/6/19",
            "role": "Relationship Manager",
            "labelbgType": "warning",
            "type": "Request ",
            "customerId": "6477858",
            "customerName": "Cristina Antonio",
            "area": "Investment",
            "subject": "Portfolio Rebalancing",
            "additionalInformation": "Request for realigning the portfolio with the IPS / Model",
            "assignedTo": "Operations",
            "priority": "Medium",
            "status": "In Progress",
            "labelbgStatus": "primary"
        },
        {
            "rmCode": "847899",
            "rmName": "John Cristopher Agunias",
            "actionDate": "10/5/19",
            "role": "Relationship Manager",
            "labelbgType": "warning",
            "type": "Request ",
            "customerId": "6477835",
            "customerName": "Reynaldo Goco",
            "area": "Investment",
            "subject": "Risk Profiling",
            "additionalInformation": "Requested a profiling before due date",
            "assignedTo": "Operations",
            "priority": "Medium",
            "status": "In Progress",
            "labelbgStatus": "primary"
        },
        {
            "rmCode": "847899",
            "rmName": "John Cristopher Agunias",
            "actionDate": "10/4/19",
            "role": "Relationship Manager",
            "labelbgType": "warning",
            "type": "Request ",
            "customerId": "6477836",
            "customerName": "Prince Anthony  Yeung",
            "area": "Investment",
            "subject": "Risk Profiling",
            "additionalInformation": "Requested a profiling before due date",
            "assignedTo": "Operations",
            "priority": "High",
            "status": "In Progress",
            "labelbgStatus": "primary"
        },
        {
            "rmCode": "847899",
            "rmName": "John Cristopher Agunias",
            "actionDate": "10/3/19",
            "role": "Relationship Manager",
            "labelbgType": "warning",
            "type": "Request ",
            "customerId": "6477837",
            "customerName": "Andrew  Chua",
            "area": "Investment",
            "subject": "Transaction",
            "additionalInformation": "assistance needed for Order Entry",
            "assignedTo": "Operations",
            "priority": "High",
            "status": "In Progress",
            "labelbgStatus": "primary"
        },
        {
            "rmCode": "847899",
            "rmName": "John Cristopher Agunias",
            "actionDate": "10/2/19",
            "role": "Relationship Manager",
            "labelbgType": "primary",
            "type": "Complaint",
            "customerId": "6477838",
            "customerName": "Rachel Arnaez",
            "area": "Account Closure",
            "subject": "Portfolio Liquidation",
            "additionalInformation": "Would like to sell the entire investment portfolio ",
            "assignedTo": "Retention",
            "priority": "High",
            "status": "In Progress",
            "labelbgStatus": "primary"
        },
        {
            "rmCode": "847899",
            "rmName": "John Cristopher Agunias",
            "actionDate": "10/1/19",
            "role": "Relationship Manager",
            "labelbgType": "primary",
            "type": "Complaint",
            "customerId": "6477839",
            "customerName": "Donna Lim",
            "area": "Account Closure",
            "subject": "Portfolio Migration",
            "additionalInformation": "Not satisfied with the service, would like to migrate to BDO",
            "assignedTo": "Retention",
            "priority": "High",
            "status": "In Progress",
            "labelbgStatus": "primary"
        },
        {
            "rmCode": "847899",
            "rmName": "John Cristopher Agunias",
            "actionDate": "9/30/19",
            "role": "Relationship Manager",
            "labelbgType": "primary",
            "type": "Complaint",
            "customerId": "6477840",
            "customerName": "Shella Lipio",
            "area": "Financial Planning",
            "subject": "Goal at Risk",
            "additionalInformation": "The goal is lagging behind the target",
            "assignedTo": "Financial Advisor",
            "priority": "High",
            "status": "In Progress",
            "labelbgStatus": "primary"
        },
        {
            "rmCode": "847899",
            "rmName": "John Cristopher Agunias",
            "actionDate": "9/29/19",
            "role": "Relationship Manager",
            "labelbgType": "warning",
            "type": "Request ",
            "customerId": "6477841",
            "customerName": "Carmela Diaz",
            "area": "Account Service",
            "subject": "Update Document",
            "additionalInformation": "Uploaded passport copy and the same is verified ",
            "assignedTo": "Operations",
            "priority": "High",
            "status": "In Progress",
            "labelbgStatus": "primary"
        },
        {
            "rmCode": "847899",
            "rmName": "John Cristopher Agunias",
            "actionDate": "9/28/19",
            "role": "Relationship Manager",
            "labelbgType": "warning",
            "type": "Request ",
            "customerId": "6477842",
            "customerName": "Joel Escalla",
            "area": "Account Service",
            "subject": "Add or Change Nominee",
            "additionalInformation": "Add a new nominee, form shall be submitted at Branch",
            "assignedTo": "Branch",
            "priority": "High",
            "status": "In Progress",
            "labelbgStatus": "primary"
        },
        {
            "rmCode": "847899",
            "rmName": "John Cristopher Agunias",
            "actionDate": "9/27/19",
            "role": "Relationship Manager",
            "labelbgType": "primary",
            "type": "Complaint",
            "customerId": "6477835",
            "customerName": "Reynaldo Goco",
            "area": "Report & Statement",
            "subject": "Statement Not Received",
            "additionalInformation": "Monthly statement for September 2019 is not received yet",
            "assignedTo": "Operations",
            "priority": "High",
            "status": "In Progress",
            "labelbgStatus": "primary"
        },
        {
            "rmCode": "847899",
            "rmName": "John Cristopher Agunias",
            "actionDate": "9/26/19",
            "role": "Relationship Manager",
            "labelbgType": "primary",
            "type": "Complaint",
            "customerId": "6477836",
            "customerName": "Prince Anthony  Yeung",
            "area": "Report & Statement",
            "subject": "Statement Not Received",
            "additionalInformation": "Monthly statement for September 2019 is not received yet",
            "assignedTo": "Operations",
            "priority": "High",
            "status": "In Progress",
            "labelbgStatus": "primary"
        },
        {
            "rmCode": "847899",
            "rmName": "John Cristopher Agunias",
            "actionDate": "9/25/19",
            "role": "Relationship Manager",
            "labelbgType": "primary",
            "type": "Complaint",
            "customerId": "6477837",
            "customerName": "Andrew  Chua",
            "area": "Report & Statement",
            "subject": "Statement Not Received",
            "additionalInformation": "Monthly statement for September 2019 is not received yet",
            "assignedTo": "Operations",
            "priority": "High",
            "status": "In Progress",
            "labelbgStatus": "primary"
        },
        {
            "rmCode": "847899",
            "rmName": "John Cristopher Agunias",
            "actionDate": "9/24/19",
            "role": "Relationship Manager",
            "labelbgType": "primary",
            "type": "Complaint",
            "customerId": "6477838",
            "customerName": "Rachel Arnaez",
            "area": "Report & Statement",
            "subject": "Statement Not Received",
            "additionalInformation": "Monthly statement for September 2019 is not received yet",
            "assignedTo": "Operations",
            "priority": "High",
            "status": "In Progress",
            "labelbgStatus": "primary"
        },
        {
            "rmCode": "847899",
            "rmName": "John Cristopher Agunias",
            "actionDate": "9/23/19",
            "role": "Relationship Manager",
            "labelbgType": "success",
            "type": "Query",
            "customerId": "6477839",
            "customerName": "Donna Lim",
            "area": "General Query",
            "subject": "Fee & Charges",
            "additionalInformation": "Fee Calculation to be explained",
            "assignedTo": "Operations",
            "priority": "High",
            "status": "In Progress",
            "labelbgStatus": "primary"
        },
        {
            "rmCode": "847899",
            "rmName": "John Cristopher Agunias",
            "actionDate": "9/22/19",
            "role": "Relationship Manager",
            "labelbgType": "success",
            "type": "Query",
            "customerId": "6477840",
            "customerName": "Shella Lipio",
            "area": "General Query",
            "subject": "Fee & Charges",
            "additionalInformation": "Fee Calculation to be explained",
            "assignedTo": "Operations",
            "priority": "High",
            "status": "In Progress",
            "labelbgStatus": "primary"
        },
        {
            "rmCode": "847899",
            "rmName": "John Cristopher Agunias",
            "actionDate": "9/21/19",
            "role": "Relationship Manager",
            "labelbgType": "success",
            "type": "Query",
            "customerId": "6477841",
            "customerName": "Carmela Diaz",
            "area": "Investment",
            "subject": "Product Information",
            "additionalInformation": "Need more information on Liquid UITFS",
            "assignedTo": "Relationship Manager",
            "priority": "High",
            "status": "Closed",
            "labelbgStatus": "success"
        },
        {
            "rmCode": "847899",
            "rmName": "John Cristopher Agunias",
            "actionDate": "9/20/19",
            "role": "Relationship Manager",
            "labelbgType": "success",
            "type": "Query",
            "customerId": "6477842",
            "customerName": "Joel Escalla",
            "area": "Investment",
            "subject": "Product Information",
            "additionalInformation": "Need more information on Liquid UITFS",
            "assignedTo": "Relationship Manager",
            "priority": "High",
            "status": "Closed",
            "labelbgStatus": "success"
        },
        {
            "rmCode": "847899",
            "rmName": "John Cristopher Agunias",
            "actionDate": "9/19/19",
            "role": "Relationship Manager",
            "labelbgType": "success",
            "type": "Query",
            "customerId": "6477843",
            "customerName": "Mario Miranda",
            "area": "Investment",
            "subject": "Product Information",
            "additionalInformation": "Need information on PERA",
            "assignedTo": "Relationship Manager",
            "priority": "High",
            "status": "Closed",
            "labelbgStatus": "success"
        },
        {
            "rmCode": "847899",
            "rmName": "John Cristopher Agunias",
            "actionDate": "9/18/19",
            "role": "Relationship Manager",
            "labelbgType": "success",
            "type": "Query",
            "customerId": "6477844",
            "customerName": "Miguel Cervantes",
            "area": "General Query",
            "subject": "Other Services",
            "additionalInformation": "Information needed on Trust Account",
            "assignedTo": "Relationship Manager",
            "priority": "High",
            "status": "Closed",
            "labelbgStatus": "success"
        },
        {
            "rmCode": "847899",
            "rmName": "John Cristopher Agunias",
            "actionDate": "9/21/19",
            "role": "Relationship Manager",
            "labelbgType": "warning",
            "type": "Request ",
            "customerId": "6477837",
            "customerName": "Andrew  Chua",
            "area": "Account Service",
            "subject": "Update Mobile",
            "additionalInformation": "Change in the Mobile Number",
            "assignedTo": "Operations",
            "priority": "High",
            "status": "Closed",
            "labelbgStatus": "success"
        },
        {
            "rmCode": "847899",
            "rmName": "John Cristopher Agunias",
            "actionDate": "9/24/19",
            "role": "Relationship Manager",
            "labelbgType": "warning",
            "type": "Request ",
            "customerId": "6477837",
            "customerName": "Andrew  Chua",
            "area": "Account Service",
            "subject": "Update Email",
            "additionalInformation": "Change in the primary Email Address",
            "assignedTo": "Operations",
            "priority": "High",
            "status": "Closed",
            "labelbgStatus": "success"
        },
        {
            "rmCode": "847899",
            "rmName": "John Cristopher Agunias",
            "actionDate": "9/27/19",
            "role": "Relationship Manager",
            "labelbgType": "warning",
            "type": "Request ",
            "customerId": "6477838",
            "customerName": "Rachel Arnaez",
            "area": "Account Service",
            "subject": "Update Document",
            "additionalInformation": "Uploaded passport copy and the same is verified ",
            "assignedTo": "Operations",
            "priority": "High",
            "status": "Closed",
            "labelbgStatus": "success"
        },
        {
            "rmCode": "847899",
            "rmName": "John Cristopher Agunias",
            "actionDate": "9/30/19",
            "role": "Relationship Manager",
            "labelbgType": "warning",
            "type": "Request ",
            "customerId": "6477839",
            "customerName": "Donna Lim",
            "area": "Account Service",
            "subject": "Add or Change Nominee",
            "additionalInformation": "Add a new nominee, form shall be submitted at Branch",
            "assignedTo": "Branch",
            "priority": "High",
            "status": "Closed",
            "labelbgStatus": "success"
        },
        {
            "rmCode": "847899",
            "rmName": "John Cristopher Agunias",
            "actionDate": "10/3/19",
            "role": "Relationship Manager",
            "labelbgType": "primary",
            "type": "Complaint",
            "customerId": "6477840",
            "customerName": "Shella Lipio",
            "area": "Report & Statement",
            "subject": "Statement Not Received",
            "additionalInformation": "Monthly statement for October 2019 is not received yet",
            "assignedTo": "Operations",
            "priority": "High",
            "status": "Closed",
            "labelbgStatus": "success"
        },
        {
            "rmCode": "847899",
            "rmName": "John Cristopher Agunias",
            "actionDate": "10/6/19",
            "role": "Relationship Manager",
            "labelbgType": "primary",
            "type": "Complaint",
            "customerId": "6477841",
            "customerName": "Carmela Diaz",
            "area": "Report & Statement",
            "subject": "Statement Not Received",
            "additionalInformation": "Monthly statement for October 2019 is not received yet",
            "assignedTo": "Operations",
            "priority": "High",
            "status": "Closed",
            "labelbgStatus": "success"
        },
        {
            "rmCode": "847899",
            "rmName": "John Cristopher Agunias",
            "actionDate": "10/9/19",
            "role": "Relationship Manager",
            "labelbgType": "primary",
            "type": "Complaint",
            "customerId": "6477842",
            "customerName": "Joel Escalla",
            "area": "Report & Statement",
            "subject": "Statement Not Received",
            "additionalInformation": "Monthly statement for October 2019 is not received yet",
            "assignedTo": "Operations",
            "priority": "High",
            "status": "Closed",
            "labelbgStatus": "success"
        },
        {
            "rmCode": "847899",
            "rmName": "John Cristopher Agunias",
            "actionDate": "10/12/19",
            "role": "Relationship Manager",
            "labelbgType": "primary",
            "type": "Complaint",
            "customerId": "6477843",
            "customerName": "Mario Miranda",
            "area": "Report & Statement",
            "subject": "Statement Not Received",
            "additionalInformation": "Monthly statement for October 2019 is not received yet",
            "assignedTo": "Operations",
            "priority": "High",
            "status": "Closed",
            "labelbgStatus": "success"
        },
        {
            "rmCode": "847899",
            "rmName": "John Cristopher Agunias",
            "actionDate": "10/15/19",
            "role": "Relationship Manager",
            "labelbgType": "warning",
            "type": "Request ",
            "customerId": "6477844",
            "customerName": "Miguel Cervantes",
            "area": "Report & Statement",
            "subject": "Statement Request",
            "additionalInformation": "Request for consolidated statement from January 2019",
            "assignedTo": "Operations",
            "priority": "High",
            "status": "Closed",
            "labelbgStatus": "success"
        },
        {
            "rmCode": "847899",
            "rmName": "John Cristopher Agunias",
            "actionDate": "10/18/19",
            "role": "Relationship Manager",
            "labelbgType": "warning",
            "type": "Request ",
            "customerId": "6477845",
            "customerName": "Andrae  Manalo",
            "area": "Report & Statement",
            "subject": "Statement Request",
            "additionalInformation": "Request for consolidated statement from January 2019",
            "assignedTo": "Operations",
            "priority": "High",
            "status": "Closed",
            "labelbgStatus": "success"
        },
        {
            "rmCode": "847899",
            "rmName": "John Cristopher Agunias",
            "actionDate": "10/21/19",
            "role": "Relationship Manager",
            "labelbgType": "primary",
            "type": "Complaint",
            "customerId": "6477846",
            "customerName": "Maria  Garcia",
            "area": "Investment",
            "subject": "Portfolio Performance",
            "additionalInformation": "Portfolio underperformed and below expectation",
            "assignedTo": "Operations",
            "priority": "High",
            "status": "Closed",
            "labelbgStatus": "success"
        },
        {
            "rmCode": "847899",
            "rmName": "John Cristopher Agunias",
            "actionDate": "10/24/19",
            "role": "Relationship Manager",
            "labelbgType": "primary",
            "type": "Complaint",
            "customerId": "6477847",
            "customerName": "Lea Angeline",
            "area": "Investment",
            "subject": "Portfolio Performance",
            "additionalInformation": "Portfolio underperformed and below expectation",
            "assignedTo": "Operations",
            "priority": "High",
            "status": "Closed",
            "labelbgStatus": "success"
        },
        {
            "rmCode": "847899",
            "rmName": "John Cristopher Agunias",
            "actionDate": "10/23/19",
            "role": "Relationship Manager",
            "labelbgType": "primary",
            "type": "Complaint",
            "customerId": "6477848",
            "customerName": "Ana  Ordonez",
            "area": "Investment",
            "subject": "Portfolio Performance",
            "additionalInformation": "Portfolio underperformed and below expectation",
            "assignedTo": "Operations",
            "priority": "High",
            "status": "Closed",
            "labelbgStatus": "success"
        },
        {
            "rmCode": "847899",
            "rmName": "John Cristopher Agunias",
            "actionDate": "10/22/19",
            "role": "Relationship Manager",
            "labelbgType": "success",
            "type": "Query",
            "customerId": "6477849",
            "customerName": "Christmas  Sevilla",
            "area": "Investment",
            "subject": "Portfolio Performance",
            "additionalInformation": "Need explanation on portfolio return calculation",
            "assignedTo": "Operations",
            "priority": "High",
            "status": "Closed",
            "labelbgStatus": "success"
        },
        {
            "rmCode": "847899",
            "rmName": "John Cristopher Agunias",
            "actionDate": "10/21/19",
            "role": "Relationship Manager",
            "labelbgType": "success",
            "type": "Query",
            "customerId": "6477850",
            "customerName": "Patrick Cheng",
            "area": "Investment",
            "subject": "Portfolio Performance",
            "additionalInformation": "Need to know portfolio return since inception of the account",
            "assignedTo": "Operations",
            "priority": "Medium",
            "status": "Closed",
            "labelbgStatus": "success"
        },
        {
            "rmCode": "847899",
            "rmName": "John Cristopher Agunias",
            "actionDate": "10/20/19",
            "role": "Relationship Manager",
            "labelbgType": "warning",
            "type": "Request ",
            "customerId": "6477851",
            "customerName": "Carina Yandoc",
            "area": "Investment",
            "subject": "Portfolio Rebalancing",
            "additionalInformation": "Request for realigning the portfolio with the IPS / Model",
            "assignedTo": "Operations",
            "priority": "Medium",
            "status": "Closed",
            "labelbgStatus": "success"
        },
        {
            "rmCode": "847899",
            "rmName": "John Cristopher Agunias",
            "actionDate": "10/19/19",
            "role": "Relationship Manager",
            "labelbgType": "warning",
            "type": "Request ",
            "customerId": "6477852",
            "customerName": "Norman Carmen",
            "area": "Investment",
            "subject": "Risk Profiling",
            "additionalInformation": "Requested a profiling before due date",
            "assignedTo": "Operations",
            "priority": "Medium",
            "status": "Closed",
            "labelbgStatus": "success"
        },
        {
            "rmCode": "847899",
            "rmName": "John Cristopher Agunias",
            "actionDate": "10/17/19",
            "role": "Relationship Manager",
            "labelbgType": "warning",
            "type": "Request ",
            "customerId": "6477853",
            "customerName": "Gemma Deladia",
            "area": "Investment",
            "subject": "Risk Profiling",
            "additionalInformation": "Requested a profiling before due date",
            "assignedTo": "Operations",
            "priority": "High",
            "status": "Closed",
            "labelbgStatus": "success"
        },
        {
            "rmCode": "847899",
            "rmName": "John Cristopher Agunias",
            "actionDate": "10/15/19",
            "role": "Relationship Manager",
            "labelbgType": "warning",
            "type": "Request ",
            "customerId": "6477854",
            "customerName": "Susan  Ferrer",
            "area": "Investment",
            "subject": "Transaction",
            "additionalInformation": "assistance needed for Order Entry",
            "assignedTo": "Operations",
            "priority": "High",
            "status": "Closed",
            "labelbgStatus": "success"
        },
        {
            "rmCode": "847899",
            "rmName": "John Cristopher Agunias",
            "actionDate": "10/13/19",
            "role": "Relationship Manager",
            "labelbgType": "primary",
            "type": "Complaint",
            "customerId": "6477884",
            "customerName": "Paul Azura ",
            "area": "Account Closure",
            "subject": "Portfolio Liquidation",
            "additionalInformation": "Would like to sell the entire investment portfolio ",
            "assignedTo": "Retention",
            "priority": "High",
            "status": "Closed",
            "labelbgStatus": "success"
        },
        {
            "rmCode": "847899",
            "rmName": "John Cristopher Agunias",
            "actionDate": "10/11/19",
            "role": "Relationship Manager",
            "labelbgType": "primary",
            "type": "Complaint",
            "customerId": "6477885",
            "customerName": "Maribeth Ortuoste ",
            "area": "Account Closure",
            "subject": "Portfolio Migration",
            "additionalInformation": "Not satisfied with the service, would like to migrate to BDO",
            "assignedTo": "Retention",
            "priority": "High",
            "status": "Closed",
            "labelbgStatus": "success"
        },
        {
            "rmCode": "847899",
            "rmName": "John Cristopher Agunias",
            "actionDate": "10/9/19",
            "role": "Relationship Manager",
            "labelbgType": "primary",
            "type": "Complaint",
            "customerId": "6477886",
            "customerName": "June Aubrey  De La Pena ",
            "area": "Financial Planning",
            "subject": "Goal at Risk",
            "additionalInformation": "The goal is lagging behind the target",
            "assignedTo": "Financial Advisor",
            "priority": "High",
            "status": "Closed",
            "labelbgStatus": "success"
        },
        {
            "rmCode": "847899",
            "rmName": "John Cristopher Agunias",
            "actionDate": "10/7/19",
            "role": "Relationship Manager",
            "labelbgType": "warning",
            "type": "Request ",
            "customerId": "6477887",
            "customerName": "Catherine Reyes ",
            "area": "Account Service",
            "subject": "Update Document",
            "additionalInformation": "Uploaded passport copy and the same is verified ",
            "assignedTo": "Operations",
            "priority": "High",
            "status": "Closed",
            "labelbgStatus": "success"
        },
        {
            "rmCode": "847899",
            "rmName": "John Cristopher Agunias",
            "actionDate": "10/6/19",
            "role": "Relationship Manager",
            "labelbgType": "warning",
            "type": "Request ",
            "customerId": "6477888",
            "customerName": "Angel Marie Pacis",
            "area": "Account Service",
            "subject": "Add or Change Nominee",
            "additionalInformation": "Add a new nominee, form shall be submitted at Branch",
            "assignedTo": "Branch",
            "priority": "High",
            "status": "Closed",
            "labelbgStatus": "success"
        },
        {
            "rmCode": "847899",
            "rmName": "John Cristopher Agunias",
            "actionDate": "10/5/19",
            "role": "Relationship Manager",
            "labelbgType": "primary",
            "type": "Complaint",
            "customerId": "6477889",
            "customerName": "Rowena Caro",
            "area": "Report & Statement",
            "subject": "Statement Not Received",
            "additionalInformation": "Monthly statement for September 2019 is not received yet",
            "assignedTo": "Operations",
            "priority": "High",
            "status": "Closed",
            "labelbgStatus": "success"
        },
        {
            "rmCode": "847899",
            "rmName": "John Cristopher Agunias",
            "actionDate": "10/4/19",
            "role": "Relationship Manager",
            "labelbgType": "primary",
            "type": "Complaint",
            "customerId": "6477890",
            "customerName": "Jaclyn Faith Chua",
            "area": "Report & Statement",
            "subject": "Statement Not Received",
            "additionalInformation": "Monthly statement for September 2019 is not received yet",
            "assignedTo": "Operations",
            "priority": "High",
            "status": "Closed",
            "labelbgStatus": "success"
        },
        {
            "rmCode": "847899",
            "rmName": "John Cristopher Agunias",
            "actionDate": "10/3/19",
            "role": "Relationship Manager",
            "labelbgType": "primary",
            "type": "Complaint",
            "customerId": "6477870",
            "customerName": "James Matthew Tan",
            "area": "Report & Statement",
            "subject": "Statement Not Received",
            "additionalInformation": "Monthly statement for September 2019 is not received yet",
            "assignedTo": "Operations",
            "priority": "High",
            "status": "Closed",
            "labelbgStatus": "success"
        },
        {
            "rmCode": "847899",
            "rmName": "John Cristopher Agunias",
            "actionDate": "10/2/19",
            "role": "Relationship Manager",
            "labelbgType": "primary",
            "type": "Complaint",
            "customerId": "6477871",
            "customerName": "Edward Michael  Fernandez",
            "area": "Report & Statement",
            "subject": "Statement Not Received",
            "additionalInformation": "Monthly statement for September 2019 is not received yet",
            "assignedTo": "Operations",
            "priority": "High",
            "status": "Closed",
            "labelbgStatus": "success"
        },
        {
            "rmCode": "847899",
            "rmName": "John Cristopher Agunias",
            "actionDate": "10/1/19",
            "role": "Relationship Manager",
            "labelbgType": "success",
            "type": "Query",
            "customerId": "6477872",
            "customerName": "Maria Gene Erika Reyes",
            "area": "General Query",
            "subject": "Fee & Charges",
            "additionalInformation": "Fee Calculation to be explained",
            "assignedTo": "Operations",
            "priority": "High",
            "status": "Closed",
            "labelbgStatus": "success"
        },
        {
            "rmCode": "847899",
            "rmName": "John Cristopher Agunias",
            "actionDate": "9/30/19",
            "role": "Relationship Manager",
            "labelbgType": "success",
            "type": "Query",
            "customerId": "6477873",
            "customerName": "Mary Ellen Legaspi",
            "area": "General Query",
            "subject": "Fee & Charges",
            "additionalInformation": "Fee Calculation to be explained",
            "assignedTo": "Operations",
            "priority": "High",
            "status": "Closed",
            "labelbgStatus": "success"
        },
        {
            "rmCode": "847899",
            "rmName": "John Cristopher Agunias",
            "actionDate": "8/30/19",
            "role": "Relationship Manager",
            "labelbgType": "success",
            "type": "Query",
            "customerId": "6477841",
            "customerName": "Carmela Diaz",
            "area": "Investment",
            "subject": "Product Information",
            "additionalInformation": "Need more information on Liquid UITFS",
            "assignedTo": "Relationship Manager",
            "priority": "High",
            "status": "Closed",
            "labelbgStatus": "success"
        },
        {
            "rmCode": "847899",
            "rmName": "John Cristopher Agunias",
            "actionDate": "8/30/19",
            "role": "Relationship Manager",
            "labelbgType": "success",
            "type": "Query",
            "customerId": "6477842",
            "customerName": "Joel Escalla",
            "area": "Investment",
            "subject": "Product Information",
            "additionalInformation": "Need more information on Liquid UITFS",
            "assignedTo": "Relationship Manager",
            "priority": "High",
            "status": "Closed",
            "labelbgStatus": "success"
        },
        {
            "rmCode": "847899",
            "rmName": "John Cristopher Agunias",
            "actionDate": "8/29/19",
            "role": "Relationship Manager",
            "labelbgType": "success",
            "type": "Query",
            "customerId": "6477843",
            "customerName": "Mario Miranda",
            "area": "Investment",
            "subject": "Product Information",
            "additionalInformation": "Need information on PERA",
            "assignedTo": "Relationship Manager",
            "priority": "High",
            "status": "Closed",
            "labelbgStatus": "success"
        },
        {
            "rmCode": "847899",
            "rmName": "John Cristopher Agunias",
            "actionDate": "8/28/19",
            "role": "Relationship Manager",
            "labelbgType": "success",
            "type": "Query",
            "customerId": "6477861",
            "customerName": "Gerardo Bien",
            "area": "General Query",
            "subject": "Other Services",
            "additionalInformation": "Information needed on Trust Account",
            "assignedTo": "Relationship Manager",
            "priority": "High",
            "status": "Closed",
            "labelbgStatus": "success"
        },
        {
            "rmCode": "847899",
            "rmName": "John Cristopher Agunias",
            "actionDate": "8/31/19",
            "role": "Relationship Manager",
            "labelbgType": "warning",
            "type": "Request ",
            "customerId": "6477862",
            "customerName": "Ma. Angeli Atanacio",
            "area": "Account Service",
            "subject": "Update Mobile",
            "additionalInformation": "Change in the Mobile Number",
            "assignedTo": "Operations",
            "priority": "High",
            "status": "Closed",
            "labelbgStatus": "success"
        },
        {
            "rmCode": "847899",
            "rmName": "John Cristopher Agunias",
            "actionDate": "9/3/19",
            "role": "Relationship Manager",
            "labelbgType": "warning",
            "type": "Request ",
            "customerId": "6477863",
            "customerName": "Marvin Del Castillo",
            "area": "Account Service",
            "subject": "Update Email",
            "additionalInformation": "Change in the primary Email Address",
            "assignedTo": "Operations",
            "priority": "High",
            "status": "Closed",
            "labelbgStatus": "success"
        },
        {
            "rmCode": "847899",
            "rmName": "John Cristopher Agunias",
            "actionDate": "9/6/19",
            "role": "Relationship Manager",
            "labelbgType": "warning",
            "type": "Request ",
            "customerId": "6477864",
            "customerName": "Ma. Victoria Limbo",
            "area": "Account Service",
            "subject": "Update Document",
            "additionalInformation": "Uploaded passport copy and the same is verified ",
            "assignedTo": "Operations",
            "priority": "High",
            "status": "Closed",
            "labelbgStatus": "success"
        },
        {
            "rmCode": "847899",
            "rmName": "John Cristopher Agunias",
            "actionDate": "9/9/19",
            "role": "Relationship Manager",
            "labelbgType": "warning",
            "type": "Request ",
            "customerId": "6477865",
            "customerName": "Christopher Banaag",
            "area": "Account Service",
            "subject": "Add or Change Nominee",
            "additionalInformation": "Add a new nominee, form shall be submitted at Branch",
            "assignedTo": "Branch",
            "priority": "High",
            "status": "Closed",
            "labelbgStatus": "success"
        },
        {
            "rmCode": "847899",
            "rmName": "John Cristopher Agunias",
            "actionDate": "9/12/19",
            "role": "Relationship Manager",
            "labelbgType": "primary",
            "type": "Complaint",
            "customerId": "6477866",
            "customerName": "Amerjaphil Tugade",
            "area": "Report & Statement",
            "subject": "Statement Not Received",
            "additionalInformation": "Monthly statement for October 2019 is not received yet",
            "assignedTo": "Operations",
            "priority": "High",
            "status": "Closed",
            "labelbgStatus": "success"
        },
        {
            "rmCode": "847899",
            "rmName": "John Cristopher Agunias",
            "actionDate": "9/15/19",
            "role": "Relationship Manager",
            "labelbgType": "primary",
            "type": "Complaint",
            "customerId": "6477867",
            "customerName": "Dinno Paulo Majadas ",
            "area": "Report & Statement",
            "subject": "Statement Not Received",
            "additionalInformation": "Monthly statement for October 2019 is not received yet",
            "assignedTo": "Operations",
            "priority": "High",
            "status": "Closed",
            "labelbgStatus": "success"
        },
        {
            "rmCode": "847899",
            "rmName": "John Cristopher Agunias",
            "actionDate": "9/18/19",
            "role": "Relationship Manager",
            "labelbgType": "primary",
            "type": "Complaint",
            "customerId": "6477868",
            "customerName": "Rolland Dela Cruz",
            "area": "Report & Statement",
            "subject": "Statement Not Received",
            "additionalInformation": "Monthly statement for October 2019 is not received yet",
            "assignedTo": "Operations",
            "priority": "High",
            "status": "Closed",
            "labelbgStatus": "success"
        },
        {
            "rmCode": "847899",
            "rmName": "John Cristopher Agunias",
            "actionDate": "9/21/19",
            "role": "Relationship Manager",
            "labelbgType": "primary",
            "type": "Complaint",
            "customerId": "6477869",
            "customerName": "Bernard Alcaraz",
            "area": "Report & Statement",
            "subject": "Statement Not Received",
            "additionalInformation": "Monthly statement for October 2019 is not received yet",
            "assignedTo": "Operations",
            "priority": "High",
            "status": "Closed",
            "labelbgStatus": "success"
        },
        {
            "rmCode": "847899",
            "rmName": "John Cristopher Agunias",
            "actionDate": "9/24/19",
            "role": "Relationship Manager",
            "labelbgType": "warning",
            "type": "Request ",
            "customerId": "6477870",
            "customerName": "James Matthew Tan",
            "area": "Report & Statement",
            "subject": "Statement Request",
            "additionalInformation": "Request for consolidated statement from January 2019",
            "assignedTo": "Operations",
            "priority": "High",
            "status": "Closed",
            "labelbgStatus": "success"
        },
        {
            "rmCode": "847899",
            "rmName": "John Cristopher Agunias",
            "actionDate": "9/27/19",
            "role": "Relationship Manager",
            "labelbgType": "warning",
            "type": "Request ",
            "customerId": "6477871",
            "customerName": "Edward Michael  Fernandez",
            "area": "Report & Statement",
            "subject": "Statement Request",
            "additionalInformation": "Request for consolidated statement from January 2019",
            "assignedTo": "Operations",
            "priority": "High",
            "status": "Closed",
            "labelbgStatus": "success"
        },
        {
            "rmCode": "847899",
            "rmName": "John Cristopher Agunias",
            "actionDate": "9/30/19",
            "role": "Relationship Manager",
            "labelbgType": "primary",
            "type": "Complaint",
            "customerId": "6477872",
            "customerName": "Maria Gene Erika Reyes",
            "area": "Investment",
            "subject": "Portfolio Performance",
            "additionalInformation": "Portfolio underperformed and below expectation",
            "assignedTo": "Operations",
            "priority": "High",
            "status": "Closed",
            "labelbgStatus": "success"
        },
        {
            "rmCode": "847899",
            "rmName": "John Cristopher Agunias",
            "actionDate": "10/3/19",
            "role": "Relationship Manager",
            "labelbgType": "primary",
            "type": "Complaint",
            "customerId": "6477873",
            "customerName": "Mary Ellen Legaspi",
            "area": "Investment",
            "subject": "Portfolio Performance",
            "additionalInformation": "Portfolio underperformed and below expectation",
            "assignedTo": "Operations",
            "priority": "High",
            "status": "Closed",
            "labelbgStatus": "success"
        },
        {
            "rmCode": "847899",
            "rmName": "John Cristopher Agunias",
            "actionDate": "10/2/19",
            "role": "Relationship Manager",
            "labelbgType": "success",
            "type": "Query",
            "customerId": "6477874",
            "customerName": "Dennis Follo",
            "area": "Investment",
            "subject": "Product Information",
            "additionalInformation": "Need information on PERA",
            "assignedTo": "Relationship Manager",
            "priority": "High",
            "status": "Closed",
            "labelbgStatus": "success"
        },
        {
            "rmCode": "847899",
            "rmName": "John Cristopher Agunias",
            "actionDate": "9/1/19",
            "role": "Relationship Manager",
            "labelbgType": "success",
            "type": "Query",
            "customerId": "6477875",
            "customerName": "Felipe Velasco",
            "area": "General Query",
            "subject": "Other Services",
            "additionalInformation": "Information needed on Trust Account",
            "assignedTo": "Relationship Manager",
            "priority": "High",
            "status": "Closed",
            "labelbgStatus": "success"
        },
        {
            "rmCode": "847899",
            "rmName": "John Cristopher Agunias",
            "actionDate": "9/1/19",
            "role": "Relationship Manager",
            "labelbgType": "warning",
            "type": "Request ",
            "customerId": "6477876",
            "customerName": "Stella Sampayan ",
            "area": "Account Service",
            "subject": "Update Mobile",
            "additionalInformation": "Change in the Mobile Number",
            "assignedTo": "Operations",
            "priority": "High",
            "status": "Closed",
            "labelbgStatus": "success"
        },
        {
            "rmCode": "847899",
            "rmName": "John Cristopher Agunias",
            "actionDate": "8/31/19",
            "role": "Relationship Manager",
            "labelbgType": "warning",
            "type": "Request ",
            "customerId": "6477877",
            "customerName": "Ma. Teresa Atienza ",
            "area": "Account Service",
            "subject": "Update Email",
            "additionalInformation": "Change in the primary Email Address",
            "assignedTo": "Operations",
            "priority": "High",
            "status": "Closed",
            "labelbgStatus": "success"
        },
        {
            "rmCode": "847899",
            "rmName": "John Cristopher Agunias",
            "actionDate": "8/30/19",
            "role": "Relationship Manager",
            "labelbgType": "warning",
            "type": "Request ",
            "customerId": "6477878",
            "customerName": "Madeleine Casas",
            "area": "Account Service",
            "subject": "Update Document",
            "additionalInformation": "Uploaded passport copy and the same is verified ",
            "assignedTo": "Operations",
            "priority": "High",
            "status": "Closed",
            "labelbgStatus": "success"
        },
        {
            "rmCode": "847899",
            "rmName": "John Cristopher Agunias",
            "actionDate": "9/2/19",
            "role": "Relationship Manager",
            "labelbgType": "warning",
            "type": "Request ",
            "customerId": "6477879",
            "customerName": "Melanie Cahanding ",
            "area": "Account Service",
            "subject": "Add or Change Nominee",
            "additionalInformation": "Add a new nominee, form shall be submitted at Branch",
            "assignedTo": "Branch",
            "priority": "High",
            "status": "Closed",
            "labelbgStatus": "success"
        },
        {
            "rmCode": "847899",
            "rmName": "John Cristopher Agunias",
            "actionDate": "9/5/19",
            "role": "Relationship Manager",
            "labelbgType": "primary",
            "type": "Complaint",
            "customerId": "6477880",
            "customerName": "Jeffrey Ligsay ",
            "area": "Report & Statement",
            "subject": "Statement Not Received",
            "additionalInformation": "Monthly statement for October 2019 is not received yet",
            "assignedTo": "Operations",
            "priority": "High",
            "status": "Closed",
            "labelbgStatus": "success"
        },
        {
            "rmCode": "847899",
            "rmName": "John Cristopher Agunias",
            "actionDate": "9/8/19",
            "role": "Relationship Manager",
            "labelbgType": "primary",
            "type": "Complaint",
            "customerId": "6477881",
            "customerName": "Ma. Felicia Magtibay",
            "area": "Report & Statement",
            "subject": "Statement Not Received",
            "additionalInformation": "Monthly statement for October 2019 is not received yet",
            "assignedTo": "Operations",
            "priority": "High",
            "status": "Closed",
            "labelbgStatus": "success"
        },
        {
            "rmCode": "847899",
            "rmName": "John Cristopher Agunias",
            "actionDate": "9/11/19",
            "role": "Relationship Manager",
            "labelbgType": "primary",
            "type": "Complaint",
            "customerId": "6477882",
            "customerName": "Ma. Gladys Perez ",
            "area": "Report & Statement",
            "subject": "Statement Not Received",
            "additionalInformation": "Monthly statement for October 2019 is not received yet",
            "assignedTo": "Operations",
            "priority": "High",
            "status": "Closed",
            "labelbgStatus": "success"
        },
        {
            "rmCode": "847899",
            "rmName": "John Cristopher Agunias",
            "actionDate": "9/14/19",
            "role": "Relationship Manager",
            "labelbgType": "primary",
            "type": "Complaint",
            "customerId": "6477883",
            "customerName": "Leonor Cahulogan ",
            "area": "Report & Statement",
            "subject": "Statement Not Received",
            "additionalInformation": "Monthly statement for October 2019 is not received yet",
            "assignedTo": "Operations",
            "priority": "High",
            "status": "Closed",
            "labelbgStatus": "success"
        },
        {
            "rmCode": "847899",
            "rmName": "John Cristopher Agunias",
            "actionDate": "9/17/19",
            "role": "Relationship Manager",
            "labelbgType": "warning",
            "type": "Request ",
            "customerId": "6477884",
            "customerName": "Paul Azura ",
            "area": "Report & Statement",
            "subject": "Statement Request",
            "additionalInformation": "Request for consolidated statement from January 2019",
            "assignedTo": "Operations",
            "priority": "High",
            "status": "Closed",
            "labelbgStatus": "success"
        },
        {
            "rmCode": "847899",
            "rmName": "John Cristopher Agunias",
            "actionDate": "9/20/19",
            "role": "Relationship Manager",
            "labelbgType": "warning",
            "type": "Request ",
            "customerId": "6477885",
            "customerName": "Maribeth Ortuoste ",
            "area": "Report & Statement",
            "subject": "Statement Request",
            "additionalInformation": "Request for consolidated statement from January 2019",
            "assignedTo": "Operations",
            "priority": "High",
            "status": "Closed",
            "labelbgStatus": "success"
        },
        {
            "rmCode": "847899",
            "rmName": "John Cristopher Agunias",
            "actionDate": "9/23/19",
            "role": "Relationship Manager",
            "labelbgType": "warning",
            "type": "Request ",
            "customerId": "6477875",
            "customerName": "Felipe Velasco",
            "area": "Investment",
            "subject": "Portfolio Performance",
            "additionalInformation": "Portfolio underperformed and below expectation",
            "assignedTo": "Operations",
            "priority": "High",
            "status": "Closed",
            "labelbgStatus": "success"
        },
        {
            "rmCode": "847899",
            "rmName": "John Cristopher Agunias",
            "actionDate": "9/26/19",
            "role": "Relationship Manager",
            "labelbgType": "warning",
            "type": "Request ",
            "customerId": "6477876",
            "customerName": "Stella Sampayan ",
            "area": "Investment",
            "subject": "Portfolio Performance",
            "additionalInformation": "Portfolio underperformed and below expectation",
            "assignedTo": "Operations",
            "priority": "High",
            "status": "Closed",
            "labelbgStatus": "success"
        }
    ]
}