[
    {
        "rmCode": "847899",
        "rnName": "John Cristopher Agunias",
        "customerId": "6477835",
        "clientName": "Reynaldo Goco",
        "portfolioCode": "64778351",
        "portfolioName": "Retierment Portfolio",
        "period": "Since Inception",
        "portfolioReturn": "11.82",
        "benchmarkReturn": "8.20",
        "benchmarkName": " PSEi Composite Index"
    },
    {
        "rmCode": "847899",
        "rnName": "John Cristopher Agunias",
        "customerId": "6477835",
        "clientName": "Reynaldo Goco",
        "portfolioCode": "64778352",
        "portfolioName": "Investment Advisory Portfolio",
        "period": "Since Inception",
        "portfolioReturn": "14.27",
        "benchmarkReturn": "7.86",
        "benchmarkName": " FTSE Philippines Index"
    },
    {
        "rmCode": "847899",
        "rnName": "John Cristopher Agunias",
        "customerId": "6477835",
        "clientName": "Reynaldo Goco",
        "portfolioCode": "64778353",
        "portfolioName": "Execution Only Account",
        "period": "Since Inception",
        "portfolioReturn": "10.50",
        "benchmarkReturn": "8.16",
        "benchmarkName": " PSEi Composite Index"
    },
    {
        "rmCode": "847899",
        "rnName": "John Cristopher Agunias",
        "customerId": "6477836",
        "clientName": "Prince Anthony  Yeung",
        "portfolioCode": "64778361",
        "portfolioName": "Retierment Portfolio",
        "period": "Since Inception",
        "portfolioReturn": "14.88",
        "benchmarkReturn": "16.88",
        "benchmarkName": "PHS All Shares Index"
    },
    {
        "rmCode": "847899",
        "rnName": "John Cristopher Agunias",
        "customerId": "6477836",
        "clientName": "Prince Anthony  Yeung",
        "portfolioCode": "64778362",
        "portfolioName": "Investment Advisory Portfolio",
        "period": "Since Inception",
        "portfolioReturn": "14.98",
        "benchmarkReturn": "16.92",
        "benchmarkName": "PHS All Shares Index"
    },
    {
        "rmCode": "847899",
        "rnName": "John Cristopher Agunias",
        "customerId": "6477836",
        "clientName": "Prince Anthony  Yeung",
        "portfolioCode": "64778363",
        "portfolioName": "Execution Only Account",
        "period": "Since Inception",
        "portfolioReturn": "17.09",
        "benchmarkReturn": "17.01",
        "benchmarkName": "PHS All Shares Index"
    },
    {
        "rmCode": "847899",
        "rnName": "John Cristopher Agunias",
        "customerId": "6477837",
        "clientName": "Andrew  Chua",
        "portfolioCode": "64778371",
        "portfolioName": "Retierment Portfolio",
        "period": "Since Inception",
        "portfolioReturn": "16.01",
        "benchmarkReturn": "6.00",
        "benchmarkName": " FTSE Philippines Index"
    },
    {
        "rmCode": "847899",
        "rnName": "John Cristopher Agunias",
        "customerId": "6477837",
        "clientName": "Andrew  Chua",
        "portfolioCode": "64778372",
        "portfolioName": "Retierment Advisory Portfolio",
        "period": "Since Inception",
        "portfolioReturn": "15.07",
        "benchmarkReturn": "6.71",
        "benchmarkName": " FTSE Philippines Index"
    },
    {
        "rmCode": "847899",
        "rnName": "John Cristopher Agunias",
        "customerId": "6477837",
        "clientName": "Andrew  Chua",
        "portfolioCode": "64778373",
        "portfolioName": "Execution Only Account",
        "period": "Since Inception",
        "portfolioReturn": "14.12",
        "benchmarkReturn": "7.77",
        "benchmarkName": " FTSE Philippines Index"
    },
    {
        "rmCode": "847899",
        "rnName": "John Cristopher Agunias",
        "customerId": "6477835",
        "clientName": "Reynaldo Goco",
        "portfolioCode": "64778351",
        "portfolioName": "Retierment Portfolio",
        "period": "Year",
        "portfolioReturn": "13.10",
        "benchmarkReturn": "10.20",
        "benchmarkName": " PSEi Composite Index"
    },
    {
        "rmCode": "847899",
        "rnName": "John Cristopher Agunias",
        "customerId": "6477835",
        "clientName": "Reynaldo Goco",
        "portfolioCode": "64778352",
        "portfolioName": "Investment Advisory Portfolio",
        "period": "Year",
        "portfolioReturn": "15.55",
        "benchmarkReturn": "9.86",
        "benchmarkName": " FTSE Philippines Index"
    },
    {
        "rmCode": "847899",
        "rnName": "John Cristopher Agunias",
        "customerId": "6477835",
        "clientName": "Reynaldo Goco",
        "portfolioCode": "64778353",
        "portfolioName": "Execution Only Account",
        "period": "Year",
        "portfolioReturn": "11.77",
        "benchmarkReturn": "10.16",
        "benchmarkName": " PSEi Composite Index"
    },
    {
        "rmCode": "847899",
        "rnName": "John Cristopher Agunias",
        "customerId": "6477836",
        "clientName": "Prince Anthony  Yeung",
        "portfolioCode": "64778361",
        "portfolioName": "Retierment Portfolio",
        "period": "Year",
        "portfolioReturn": "16.16",
        "benchmarkReturn": "18.88",
        "benchmarkName": "PHS All Shares Index"
    },
    {
        "rmCode": "847899",
        "rnName": "John Cristopher Agunias",
        "customerId": "6477836",
        "clientName": "Prince Anthony  Yeung",
        "portfolioCode": "64778362",
        "portfolioName": "Investment Advisory Portfolio",
        "period": "Year",
        "portfolioReturn": "16.26",
        "benchmarkReturn": "18.92",
        "benchmarkName": "PHS All Shares Index"
    },
    {
        "rmCode": "847899",
        "rnName": "John Cristopher Agunias",
        "customerId": "6477836",
        "clientName": "Prince Anthony  Yeung",
        "portfolioCode": "64778363",
        "portfolioName": "Execution Only Account",
        "period": "Year",
        "portfolioReturn": "18.37",
        "benchmarkReturn": "19.01",
        "benchmarkName": "PHS All Shares Index"
    },
    {
        "rmCode": "847899",
        "rnName": "John Cristopher Agunias",
        "customerId": "6477837",
        "clientName": "Andrew  Chua",
        "portfolioCode": "64778371",
        "portfolioName": "Retierment Portfolio",
        "period": "Year",
        "portfolioReturn": "17.29",
        "benchmarkReturn": "8.00",
        "benchmarkName": " FTSE Philippines Index"
    },
    {
        "rmCode": "847899",
        "rnName": "John Cristopher Agunias",
        "customerId": "6477837",
        "clientName": "Andrew  Chua",
        "portfolioCode": "64778372",
        "portfolioName": "Retierment Advisory Portfolio",
        "period": "Year",
        "portfolioReturn": "16.35",
        "benchmarkReturn": "8.71",
        "benchmarkName": " FTSE Philippines Index"
    },
    {
        "rmCode": "847899",
        "rnName": "John Cristopher Agunias",
        "customerId": "6477837",
        "clientName": "Andrew  Chua",
        "portfolioCode": "64778373",
        "portfolioName": "Execution Only Account",
        "period": "Year",
        "portfolioReturn": "15.40",
        "benchmarkReturn": "9.77",
        "benchmarkName": " FTSE Philippines Index"
    },
    {
        "rmCode": "847899",
        "rnName": "John Cristopher Agunias",
        "customerId": "6477835",
        "clientName": "Reynaldo Goco",
        "portfolioCode": "64778351",
        "portfolioName": "Retierment Portfolio",
        "period": "Quarter",
        "portfolioReturn": "12.04",
        "benchmarkReturn": "8.40",
        "benchmarkName": " PSEi Composite Index"
    },
    {
        "rmCode": "847899",
        "rnName": "John Cristopher Agunias",
        "customerId": "6477835",
        "clientName": "Reynaldo Goco",
        "portfolioCode": "64778352",
        "portfolioName": "Investment Advisory Portfolio",
        "period": "Quarter",
        "portfolioReturn": "14.49",
        "benchmarkReturn": "8.16",
        "benchmarkName": " FTSE Philippines Index"
    },
    {
        "rmCode": "847899",
        "rnName": "John Cristopher Agunias",
        "customerId": "6477835",
        "clientName": "Reynaldo Goco",
        "portfolioCode": "64778353",
        "portfolioName": "Execution Only Account",
        "period": "Quarter",
        "portfolioReturn": "10.72",
        "benchmarkReturn": "8.46",
        "benchmarkName": " PSEi Composite Index"
    },
    {
        "rmCode": "847899",
        "rnName": "John Cristopher Agunias",
        "customerId": "6477836",
        "clientName": "Prince Anthony  Yeung",
        "portfolioCode": "64778361",
        "portfolioName": "Retierment Portfolio",
        "period": "Quarter",
        "portfolioReturn": "15.10",
        "benchmarkReturn": "17.10",
        "benchmarkName": "PHS All Shares Index"
    },
    {
        "rmCode": "847899",
        "rnName": "John Cristopher Agunias",
        "customerId": "6477836",
        "clientName": "Prince Anthony  Yeung",
        "portfolioCode": "64778362",
        "portfolioName": "Investment Advisory Portfolio",
        "period": "Quarter",
        "portfolioReturn": "15.20",
        "benchmarkReturn": "17.14",
        "benchmarkName": "PHS All Shares Index"
    },
    {
        "rmCode": "847899",
        "rnName": "John Cristopher Agunias",
        "customerId": "6477836",
        "clientName": "Prince Anthony  Yeung",
        "portfolioCode": "64778363",
        "portfolioName": "Execution Only Account",
        "period": "Quarter",
        "portfolioReturn": "17.31",
        "benchmarkReturn": "17.23",
        "benchmarkName": "PHS All Shares Index"
    },
    {
        "rmCode": "847899",
        "rnName": "John Cristopher Agunias",
        "customerId": "6477837",
        "clientName": "Andrew  Chua",
        "portfolioCode": "64778371",
        "portfolioName": "Retierment Portfolio",
        "period": "Quarter",
        "portfolioReturn": "16.23",
        "benchmarkReturn": "6.22",
        "benchmarkName": " FTSE Philippines Index"
    },
    {
        "rmCode": "847899",
        "rnName": "John Cristopher Agunias",
        "customerId": "6477837",
        "clientName": "Andrew  Chua",
        "portfolioCode": "64778372",
        "portfolioName": "Retierment Advisory Portfolio",
        "period": "Quarter",
        "portfolioReturn": "15.38",
        "benchmarkReturn": "6.93",
        "benchmarkName": " FTSE Philippines Index"
    },
    {
        "rmCode": "847899",
        "rnName": "John Cristopher Agunias",
        "customerId": "6477837",
        "clientName": "Andrew  Chua",
        "portfolioCode": "64778373",
        "portfolioName": "Execution Only Account",
        "period": "Quarter",
        "portfolioReturn": "14.43",
        "benchmarkReturn": "7.99",
        "benchmarkName": " FTSE Philippines Index"
    },
    {
        "rmCode": "847899",
        "rnName": "John Cristopher Agunias",
        "customerId": "6477835",
        "clientName": "Reynaldo Goco",
        "portfolioCode": "64778351",
        "portfolioName": "Retierment Portfolio",
        "period": "Month",
        "portfolioReturn": "10.72",
        "benchmarkReturn": "7.10",
        "benchmarkName": " PSEi Composite Index"
    },
    {
        "rmCode": "847899",
        "rnName": "John Cristopher Agunias",
        "customerId": "6477835",
        "clientName": "Reynaldo Goco",
        "portfolioCode": "64778352",
        "portfolioName": "Investment Advisory Portfolio",
        "period": "Month",
        "portfolioReturn": "13.17",
        "benchmarkReturn": "6.76",
        "benchmarkName": " FTSE Philippines Index"
    },
    {
        "rmCode": "847899",
        "rnName": "John Cristopher Agunias",
        "customerId": "6477835",
        "clientName": "Reynaldo Goco",
        "portfolioCode": "64778353",
        "portfolioName": "Execution Only Account",
        "period": "Month",
        "portfolioReturn": "9.40",
        "benchmarkReturn": "7.06",
        "benchmarkName": " PSEi Composite Index"
    },
    {
        "rmCode": "847899",
        "rnName": "John Cristopher Agunias",
        "customerId": "6477836",
        "clientName": "Prince Anthony  Yeung",
        "portfolioCode": "64778361",
        "portfolioName": "Retierment Portfolio",
        "period": "Month",
        "portfolioReturn": "13.78",
        "benchmarkReturn": "15.78",
        "benchmarkName": "PHS All Shares Index"
    },
    {
        "rmCode": "847899",
        "rnName": "John Cristopher Agunias",
        "customerId": "6477836",
        "clientName": "Prince Anthony  Yeung",
        "portfolioCode": "64778362",
        "portfolioName": "Investment Advisory Portfolio",
        "period": "Month",
        "portfolioReturn": "13.88",
        "benchmarkReturn": "15.82",
        "benchmarkName": "PHS All Shares Index"
    },
    {
        "rmCode": "847899",
        "rnName": "John Cristopher Agunias",
        "customerId": "6477836",
        "clientName": "Prince Anthony  Yeung",
        "portfolioCode": "64778363",
        "portfolioName": "Execution Only Account",
        "period": "Month",
        "portfolioReturn": "15.99",
        "benchmarkReturn": "16.91",
        "benchmarkName": "PHS All Shares Index"
    },
    {
        "rmCode": "847899",
        "rnName": "John Cristopher Agunias",
        "customerId": "6477837",
        "clientName": "Andrew  Chua",
        "portfolioCode": "64778371",
        "portfolioName": "Retierment Portfolio",
        "period": "Month",
        "portfolioReturn": "14.91",
        "benchmarkReturn": "5.90",
        "benchmarkName": " FTSE Philippines Index"
    },
    {
        "rmCode": "847899",
        "rnName": "John Cristopher Agunias",
        "customerId": "6477837",
        "clientName": "Andrew  Chua",
        "portfolioCode": "64778372",
        "portfolioName": "Retierment Advisory Portfolio",
        "period": "Month",
        "portfolioReturn": "13.97",
        "benchmarkReturn": "6.61",
        "benchmarkName": " FTSE Philippines Index"
    },
    {
        "rmCode": "847899",
        "rnName": "John Cristopher Agunias",
        "customerId": "6477837",
        "clientName": "Andrew  Chua",
        "portfolioCode": "64778373",
        "portfolioName": "Execution Only Account",
        "period": "Month",
        "portfolioReturn": "13.02",
        "benchmarkReturn": "7.67",
        "benchmarkName": " FTSE Philippines Index"
    }
]
