 [
    {
      "RM_Code": "847899",
      "RM_Name": "John Cristopher Agunias",
      "Customer_ID": "6477836",
      "Client_Name": "Prince Anthony  Yeung",
      "Family_Name": "Yeung Family",
      "Address": "75 P. Domingo Street, Carmona, Makati City, 1207 Metro Manila",
      "Mobile": "63 2 8812 5363",
      "Email": "Prince@hm.com",
      "Risk_Profile": "Aggressive",
      "Asset Under_Management": " 6,000,000 ",
      "Revenue": "15000",
      "Sentiment": "Unhappy"
    },
    {
      "RM_Code": "847899",
      "RM_Name": "John Cristopher Agunias",
      "Customer_ID": "6477844",
      "Client_Name": "Miguel Cervantes",
      "Family_Name": "Cervantes Family",
      "Address": "11/A Alpha Star, South Avenue, Makati City",
      "Mobile": "63 2 8818 5362",
      "Email": "Miguel@crm.com",
      "Risk_Profile": "Conservative",
      "Asset Under_Management": " 1,200,000 ",
      "Revenue": "15000",
      "Sentiment": "Unhappy"
    },
    {
      "RM_Code": "847899",
      "RM_Name": "John Cristopher Agunias",
      "Customer_ID": "6477845",
      "Client_Name": "Andrae  Manalo",
      "Family_Name": "Manalo Family",
      "Address": "402, Rainbow Building Sen. Gil Puyat Ave. cor. Makati Ave., Makati City",
      "Mobile": "63 2 8818 5364",
      "Email": "Andrae@qwm.com",
      "Risk_Profile": "Conservative",
      "Asset Under_Management": " 600,000 ",
      "Revenue": "7500",
      "Sentiment": "Unhappy"
    },
    {
      "RM_Code": "847900",
      "RM_Name": "Hilda Marie Reyeg",
      "Customer_ID": "6477865",
      "Client_Name": "Christopher Banaag",
      "Family_Name": "Banaag Family",
      "Address": "Room 24 6/F, Bulwagang Antonio J. Villegas Hall, Arroceros Street, Ermita, City of Manila 1004 Metro Manila",
      "Mobile": "63 (2) 8 523 4980",
      "Email": "Christopher@gmail.com",
      "Risk_Profile": "Conservative",
      "Asset Under_Management": " 1,750,000 ",
      "Revenue": "26250",
      "Sentiment": "Unhappy"
    },
    {
      "RM_Code": "847900",
      "RM_Name": "Hilda Marie Reyeg",
      "Customer_ID": "6477866",
      "Client_Name": "Amerjaphil Tugade",
      "Family_Name": "Tugade Family",
      "Address": "145, Charleotte, City of Manila 1004 Metro Manila",
      "Mobile": "63 (2) 8 520 4292",
      "Email": "Amerjaphil@hotmail.com",
      "Risk_Profile": "Conservative",
      "Asset Under_Management": " 750,000 ",
      "Revenue": "11250",
      "Sentiment": "Unhappy"
    },
    {
      "RM_Code": "847900",
      "RM_Name": "Antonio Jr. Zacarias",
      "Customer_ID": "6477882",
      "Client_Name": "Ma. Gladys Perez ",
      "Family_Name": "Perez Family",
      "Address": " 55 A Roces Sr Avenue 1100 Quezon City Metro Manila, Quezon City, Metro Manila",
      "Mobile": "63 2 332 0401",
      "Email": "Gladys@gmail.com",
      "Risk_Profile": "Moderate",
      "Asset Under_Management": " 1,350,000 ",
      "Revenue": "3375",
      "Sentiment": "Unhappy"
    },
    {
      "RM_Code": "847900",
      "RM_Name": "Antonio Jr. Zacarias",
      "Customer_ID": "6477883",
      "Client_Name": "Leonor Cahulogan ",
      "Family_Name": "Cahulogan Family",
      "Address": " 831 EDSA 1100 Quezon City Metro Manila, Quezon City, Metro Manila",
      "Mobile": "63 2 332 0400",
      "Email": "Leonor@outlook.com",
      "Risk_Profile": "Moderate",
      "Asset Under_Management": " 900,000 ",
      "Revenue": "2250",
      "Sentiment": "Unhappy"
    },
    {
      "RM_Code": "847900",
      "RM_Name": "Antonio Jr. Zacarias",
      "Customer_ID": "6477884",
      "Client_Name": "Paul Azura ",
      "Family_Name": "Azura Family",
      "Address": "10 Sct Chuatoco 1100 Quezon City Metro Manila, Quezon City, Metro Manila",
      "Mobile": "63 2 332 0399",
      "Email": "Paul@gmail.com",
      "Risk_Profile": "Moderate",
      "Asset Under_Management": " 5,400,000 ",
      "Revenue": "13500",
      "Sentiment": "Unhappy"
    },
    {
      "RM_Code": "847900",
      "RM_Name": "Antonio Jr. Zacarias",
      "Customer_ID": "6477885",
      "Client_Name": "Maribeth Ortuoste ",
      "Family_Name": "Ortuoste Family",
      "Address": "Consolacion Building 1100 Quezon City Metro Manila, Quezon City, Metro Manila",
      "Mobile": "63 2 332 0398",
      "Email": "Maribeth@yahoo.com",
      "Risk_Profile": "Moderate",
      "Asset Under_Management": " 900,000 ",
      "Revenue": "2250",
      "Sentiment": "Unhappy"
    },
    {
      "RM_Code": "847900",
      "RM_Name": "Antonio Jr. Zacarias",
      "Customer_ID": "6477886",
      "Client_Name": "June Aubrey  De La Pena ",
      "Family_Name": "Pena Family",
      "Address": " 79 Dona Hemady 1100 Quezon City Metro Manila, Quezon City, Metro Manila",
      "Mobile": "63 2 332 0397",
      "Email": "June@linkedin.com",
      "Risk_Profile": "Moderate",
      "Asset Under_Management": " 2,250,000 ",
      "Revenue": "5625",
      "Sentiment": "Unhappy"
    },
    {
      "RM_Code": "847901",
      "RM_Name": "Robelyn May Ramos",
      "Customer_ID": "6477905",
      "Client_Name": "Arcel Amory Calma",
      "Family_Name": "Calma Family",
      "Address": "Arroyo Street Km. 6 Lanang, 8000 Davao City ",
      "Mobile": "63 2 225 1454",
      "Email": "Arcel@aws.com",
      "Risk_Profile": "Moderate",
      "Asset Under_Management": " 1,250,000 ",
      "Revenue": "3125",
      "Sentiment": "Unhappy"
    },
    {
      "RM_Code": "847901",
      "RM_Name": "Robelyn May Ramos",
      "Customer_ID": "6477909",
      "Client_Name": "Janine Sugay",
      "Family_Name": "Sugay Family",
      "Address": "C.M. Recto Avenue, Poblacion District, 8000 Davao City",
      "Mobile": "63 2 225 1459",
      "Email": "Janine Sugay",
      "Risk_Profile": "Risk averse",
      "Asset Under_Management": " 750,000 ",
      "Revenue": "1875",
      "Sentiment": "Unhappy"
    },
    {
      "RM_Code": "847901",
      "RM_Name": "Irwin Joseph Tychuaco",
      "Customer_ID": "6477921",
      "Client_Name": "Francis Rhed Santiago",
      "Family_Name": "Santiago Family",
      "Address": "2123/B, Albatross, Calamba",
      "Mobile": "63 49 545 6778",
      "Email": "Francis@wwd.com",
      "Risk_Profile": "Moderate",
      "Asset Under_Management": " 700,000 ",
      "Revenue": "1750",
      "Sentiment": "Unhappy"
    }
  ]
